# Blender v2.79 (sub 0) OBJ File: 'pin.applied.blend'
# www.blender.org
v -0.605172 2.317033 0.534089
v -0.694962 2.317033 -0.410503
v 0.803526 2.317029 -0.076380
v 0.108127 2.783753 -0.078558
v 0.378121 2.702281 -0.087186
v 0.631696 2.531049 -0.086473
v 0.229876 2.744349 -0.167014
v 0.199763 2.702282 -0.332671
v 0.505017 2.614995 -0.174361
v 0.477800 2.569799 -0.347142
v 0.321885 2.614996 -0.426418
v 0.277442 2.531052 -0.574055
v 0.725359 2.411026 -0.164006
v 0.701410 2.366137 -0.325492
v 0.580064 2.441735 -0.421441
v 0.526308 2.366139 -0.566496
v 0.380125 2.411029 -0.639175
v -0.041301 2.783753 -0.127110
v 0.033924 2.702282 -0.386554
v 0.112960 2.531052 -0.627498
v -0.087806 2.744349 -0.270233
v -0.254659 2.702282 -0.292786
v -0.009772 2.614997 -0.534178
v -0.182506 2.569801 -0.561685
v -0.306081 2.614996 -0.437899
v -0.460225 2.531052 -0.441256
v -0.221568 2.441736 -0.681903
v -0.376135 2.366139 -0.675604
v -0.490428 2.411029 -0.559035
v -0.605172 2.317033 -0.534089
v -0.133652 2.783753 0.000000
v -0.357152 2.702282 -0.151717
v -0.561880 2.531052 -0.301340
v -0.284142 2.744349 0.000000
v -0.357152 2.702282 0.151717
v -0.511054 2.614996 -0.155778
v -0.590594 2.569800 0.000000
v -0.511054 2.614996 0.155778
v -0.561880 2.531052 0.301340
v -0.683228 2.411028 -0.293667
v -0.758772 2.366138 -0.148947
v -0.716998 2.441735 0.000000
v -0.758772 2.366138 0.148947
v -0.683228 2.411028 0.293667
v -0.694962 2.317033 0.410503
v -0.041301 2.783753 0.127110
v -0.254659 2.702282 0.292786
v -0.460225 2.531052 0.441256
v -0.087806 2.744349 0.270233
v 0.033924 2.702282 0.386554
v -0.306081 2.614996 0.437899
v -0.182506 2.569801 0.561685
v -0.009772 2.614997 0.534178
v 0.112960 2.531053 0.627498
v -0.490428 2.411029 0.559035
v -0.376135 2.366139 0.675604
v -0.221568 2.441736 0.681903
v 0.108127 2.783753 0.078558
v 0.199763 2.702282 0.332671
v 0.277442 2.531052 0.574055
v 0.229876 2.744349 0.167014
v 0.378121 2.702281 0.087186
v 0.321885 2.614996 0.426418
v 0.477800 2.569800 0.347142
v 0.505017 2.614995 0.174361
v 0.631696 2.531049 0.086473
v 0.380125 2.411029 0.639175
v 0.526308 2.366139 0.566496
v 0.580064 2.441735 0.421441
v 0.701410 2.366137 0.325492
v 0.725359 2.411026 0.164006
v 0.803526 2.317029 0.076380
v 0.859844 2.189145 -0.122692
v 0.872161 1.981579 -0.277548
v 0.846012 2.136297 -0.259621
v 0.764956 2.221530 -0.373957
v 0.818161 1.899154 -0.412781
v 0.737607 1.989054 -0.535900
v 0.709820 2.151155 -0.515712
v 0.592040 2.221531 -0.611955
v 0.645407 1.899155 -0.650558
v -0.531837 2.136299 -0.707310
v -0.623513 2.189148 -0.604661
v -0.767747 2.189147 -0.406138
v -0.868734 1.981579 -0.288096
v -0.837041 2.136298 -0.287230
v -0.838670 2.221530 -0.147088
v -0.904534 1.899154 -0.146951
v -0.911731 1.989054 0.000000
v -0.877385 2.151155 0.000000
v -0.838670 2.221530 0.147089
v -0.904534 1.899155 0.146951
v -0.868734 1.981580 0.288096
v -0.837041 2.136298 0.287230
v -0.767747 2.189147 0.406138
v -0.623513 2.189148 0.604661
v -0.531837 2.136299 0.707310
v 0.592040 2.221531 0.611955
v 0.645407 1.899154 0.650558
v 0.737607 1.989053 0.535901
v 0.709820 2.151154 0.515713
v 0.764956 2.221529 0.373958
v 0.818161 1.899153 0.412781
v 0.872161 1.981579 0.277548
v 0.846012 2.136296 0.259621
v 0.859844 2.189145 0.122693
v -0.723812 2.112628 -0.525875
v -0.650346 1.891958 -0.648419
v -0.742170 1.973685 -0.539214
v -0.817654 1.891958 -0.418138
v -0.723812 2.112628 0.525875
v -0.817653 1.891958 0.418138
v -0.742170 1.973685 0.539214
v -0.650346 1.891958 0.648419
v 0.894679 2.112626 0.000000
v 0.907272 1.891957 0.142318
v 0.917371 1.973684 0.000000
v 0.907272 1.891957 -0.142318
v 0.783182 1.618128 -0.398923
v -0.783168 1.617905 -0.399093
v 0.868179 1.617905 -0.137457
v -0.868090 1.618128 -0.137601
v 0.621419 1.618127 0.621572
v -0.621575 1.617905 -0.621508
v 0.868179 1.617905 0.137457
v 0.621419 1.618128 -0.621572
v -0.868090 1.618128 0.137602
v 0.783181 1.618127 0.398924
v -0.621575 1.617905 0.621508
v -0.783168 1.617905 0.399093
v 0.112603 1.150847 0.710946
v 0.112603 1.150847 -0.710946
v -0.326786 1.150847 -0.641354
v 0.710947 1.150847 -0.112601
v 0.326786 1.150847 -0.641353
v -0.710946 1.150847 -0.112601
v 0.710947 1.150847 0.112601
v -0.641355 1.150847 -0.326784
v -0.710947 1.150847 0.112601
v -0.508982 1.150847 -0.508980
v -0.326786 1.150847 0.641353
v -0.508982 1.150847 0.508980
v -0.112603 1.150847 0.710946
v 0.641355 1.150847 -0.326783
v -0.641355 1.150847 0.326784
v 0.508982 1.150847 0.508980
v 0.508982 1.150847 -0.508980
v 0.326786 1.150847 0.641353
v 0.641355 1.150847 0.326784
v -0.112603 1.150847 -0.710946
v -0.354540 0.708330 0.354539
v -0.078435 0.708330 0.495221
v 0.446746 0.708330 -0.227626
v -0.446746 0.708330 0.227627
v 0.354540 0.708330 0.354539
v 0.354540 0.708330 -0.354538
v 0.227628 0.708330 0.446745
v 0.446746 0.708330 0.227627
v -0.078435 0.708330 -0.495221
v 0.078435 0.708330 0.495221
v 0.078435 0.708330 -0.495221
v -0.227628 0.708330 -0.446745
v 0.495222 0.708330 -0.078434
v 0.227628 0.708330 -0.446745
v -0.495221 0.708330 -0.078434
v 0.495222 0.708330 0.078434
v -0.446746 0.708330 -0.227627
v -0.495222 0.708330 0.078434
v -0.354540 0.708330 -0.354539
v -0.227628 0.708330 0.446745
v 0.127135 0.357534 -0.249515
v -0.276590 0.357534 -0.043807
v 0.276590 0.357534 0.043807
v -0.249516 0.357534 -0.127134
v -0.276590 0.357534 0.043807
v -0.198017 0.357534 -0.198016
v -0.127134 0.357534 0.249515
v -0.198017 0.357534 0.198016
v -0.043808 0.357534 0.276590
v 0.249516 0.357534 -0.127133
v -0.249516 0.357534 0.127134
v 0.198017 0.357533 0.198016
v 0.198017 0.357534 -0.198016
v 0.127135 0.357534 0.249515
v 0.249516 0.357533 0.127134
v -0.043807 0.357534 -0.276590
v 0.043808 0.357534 0.276590
v 0.043808 0.357534 -0.276590
v -0.127134 0.357534 -0.249515
v 0.276590 0.357534 -0.043807
v -0.690161 2.227705 0.501426
v -0.690161 2.227705 -0.501426
v 0.853084 2.227701 0.000000
v -0.000000 2.795557 -0.000000
v 0.898321 2.050386 0.137326
v 0.868233 1.818430 0.280663
v 0.868233 1.818431 -0.280663
v 0.898321 2.050386 -0.137325
v -0.807478 2.050387 0.416916
v -0.867387 1.818431 0.283267
v -0.646040 2.050388 0.639117
v -0.646040 2.050388 -0.639117
v -0.867387 1.818431 -0.283267
v -0.807478 2.050387 -0.416916
v 0.795493 2.278987 0.226120
v 0.657812 2.301032 0.477927
v 0.460873 2.278990 0.686682
v -0.510658 2.278990 0.650511
v -0.776478 2.278989 0.284639
v -0.813100 2.301032 0.000000
v -0.776478 2.278989 -0.284639
v -0.510658 2.278990 -0.650511
v 0.460873 2.278990 -0.686682
v 0.657812 2.301032 -0.477927
v 0.795493 2.278987 -0.226120
v 0.075651 2.758464 0.232832
v 0.159161 2.631591 0.489855
v 0.226030 2.430339 0.695659
v 0.731461 2.430335 -0.000000
v 0.515067 2.631588 -0.000000
v 0.244816 2.758463 -0.000000
v -0.198060 2.758464 0.143898
v -0.416697 2.631590 0.302744
v -0.591765 2.430338 0.429937
v -0.198060 2.758464 -0.143898
v -0.416697 2.631590 -0.302744
v -0.591765 2.430338 -0.429937
v 0.075651 2.758464 -0.232832
v 0.159161 2.631591 -0.489855
v 0.226030 2.430339 -0.695659
v 0.357021 2.675751 -0.259391
v 0.617850 2.500024 -0.256986
v 0.435333 2.500026 -0.508197
v -0.136372 2.675752 -0.419701
v -0.053486 2.500026 -0.667021
v -0.348800 2.500026 -0.571066
v -0.441302 2.675751 0.000000
v -0.650904 2.500025 -0.155255
v -0.650904 2.500025 0.155255
v -0.136372 2.675752 0.419701
v -0.348800 2.500026 0.571066
v -0.053486 2.500026 0.667021
v 0.357021 2.675751 0.259391
v 0.435333 2.500026 0.508197
v 0.617850 2.500024 0.256986
v 0.807609 2.069263 -0.401509
v 0.737485 1.820344 -0.535811
v 0.631426 2.069264 -0.644006
v -0.889372 2.069263 -0.149868
v -0.911580 1.820344 0.000000
v -0.889372 2.069264 0.149869
v 0.631426 2.069263 0.644006
v 0.737485 1.820343 0.535811
v 0.807609 2.069262 0.401510
v -0.738574 1.816518 -0.536603
v -0.738574 1.816518 0.536603
v 0.912927 1.816518 0.000000
v 0.779067 1.402068 0.253131
v 0.779067 1.402068 -0.253131
v 0.481489 1.402068 0.662712
v -0.779067 1.402068 0.253131
v -0.481490 1.402068 0.662712
v -0.481489 1.402068 -0.662712
v -0.779067 1.402068 -0.253131
v 0.481490 1.402068 -0.662712
v 0.662714 1.402068 -0.481487
v -0.819158 1.402068 0.000000
v 0.662714 1.402067 0.481487
v -0.662714 1.402068 -0.481487
v -0.662714 1.402068 0.481487
v 0.819158 1.402068 0.000000
v 0.576218 0.907027 0.187222
v 0.576218 0.907027 -0.187222
v 0.000000 0.907027 0.605871
v 0.356122 0.907027 0.490160
v -0.576218 0.907027 0.187222
v -0.356122 0.907027 0.490160
v -0.356122 0.907027 -0.490160
v -0.576218 0.907027 -0.187222
v 0.356122 0.907027 -0.490159
v 0.000000 0.907027 -0.605871
v 0.490161 0.907027 -0.356120
v -0.187224 0.907027 -0.576217
v -0.605871 0.907027 0.000000
v -0.187224 0.907027 0.576217
v 0.490161 0.907027 0.356121
v 0.187225 0.907027 -0.576217
v -0.490161 0.907027 -0.356121
v -0.490161 0.907027 0.356121
v 0.187225 0.907027 0.576217
v 0.605871 0.907027 0.000000
v 0.367891 0.518681 0.119534
v 0.367891 0.518681 -0.119533
v 0.000000 0.518681 0.386823
v 0.227369 0.518681 0.312946
v -0.367891 0.518681 0.119534
v -0.227369 0.518681 0.312946
v -0.227369 0.518681 -0.312946
v -0.367891 0.518681 -0.119534
v 0.227369 0.518681 -0.312946
v 0.000000 0.518681 -0.386823
v 0.312947 0.518681 -0.227368
v -0.119535 0.518681 -0.367890
v -0.386823 0.518681 0.000000
v -0.119535 0.518681 0.367890
v 0.312947 0.518680 0.227368
v 0.119535 0.518681 -0.367890
v -0.312947 0.518681 -0.227368
v -0.312947 0.518681 0.227368
v 0.119535 0.518681 0.367890
v 0.386823 0.518681 0.000000
v 0.000000 0.021608 0.000000
v -0.227378 2.414207 -0.699786
v -0.229609 2.413530 -0.699391
v -0.227378 2.414207 0.699786
v -0.229609 2.413530 0.699391
v 0.000000 2.459202 -0.700639
v 0.000000 2.459202 0.700639
v -0.067430 2.452561 0.702700
v -0.067430 2.452561 -0.702700
v -0.117053 2.447674 -0.697138
v -0.117053 2.447674 0.697138
v -0.498882 1.525861 -0.684786
v -0.498882 1.525860 0.684787
v -0.454782 1.472125 0.701741
v -0.424264 1.434938 -0.703798
v -0.454782 1.472125 -0.701741
v -0.424264 1.434938 0.703798
v -0.554328 1.629593 -0.673527
v -0.554328 1.629593 0.673527
v -0.333342 1.360321 -0.721549
v -0.274581 1.328912 0.738964
v -0.333342 1.360321 0.721549
v -0.580489 1.715833 -0.678103
v -0.000000 1.259202 0.757619
v -0.000000 1.259202 -0.757620
v -0.061328 1.265243 -0.760221
v 0.061328 1.265243 0.760221
v 0.117054 1.270731 -0.753370
v 0.061328 1.265243 -0.760221
v 0.117054 1.270731 0.753370
v -0.061328 1.265243 0.760221
v -0.117054 1.270731 0.753370
v -0.117054 1.270731 -0.753370
v 0.192461 1.293605 0.749655
v 0.588471 1.976256 -0.693938
v 0.588471 1.976256 0.693938
v 0.414285 2.291656 -0.704632
v 0.424264 2.283466 -0.703887
v 0.424264 2.283466 0.703887
v 0.414285 2.291656 0.704632
v 0.333342 2.358084 -0.702555
v 0.333342 2.358084 0.702555
v 0.192461 1.293606 -0.749656
v 0.229610 1.304875 -0.742689
v 0.229610 1.304874 0.742689
v 0.575457 2.019160 -0.700977
v 0.554328 2.088812 -0.700038
v 0.554328 2.088812 0.700039
v 0.274582 1.328912 0.738964
v 0.575457 2.019159 0.700977
v -0.452508 2.249051 -0.703479
v -0.498881 2.192545 -0.701059
v -0.498881 2.192545 0.701059
v -0.424264 2.283467 -0.698706
v -0.424264 2.283467 0.698706
v -0.452508 2.249051 0.703479
v 0.002677 2.458939 0.700961
v 0.002677 2.458939 -0.700961
v -0.529635 2.135009 0.709083
v 0.117054 2.447673 0.699786
v 0.117054 2.447673 -0.699786
v -0.529635 2.135009 -0.709083
v -0.554327 2.088813 -0.701424
v -0.554327 2.088813 0.701424
v 0.554328 1.629592 -0.673485
v 0.580028 1.714316 0.677966
v 0.554328 1.629592 0.673485
v 0.588471 1.742148 -0.675152
v 0.580029 1.714317 -0.677966
v 0.588471 1.742148 0.675152
v 0.498882 1.525860 -0.684786
v 0.454739 1.472072 -0.701794
v 0.498882 1.525860 0.684786
v 0.599386 1.865437 -0.687502
v 0.599386 1.865436 0.687502
v 0.600000 1.859202 -0.685785
v 0.600000 1.859202 0.685785
v -0.192461 1.293606 -0.749656
v -0.588471 1.742149 -0.675913
v -0.580489 1.715834 0.678103
v -0.588471 1.742149 0.675913
v -0.333341 2.358084 -0.698621
v -0.343965 2.349366 -0.700774
v -0.333341 2.358084 0.698622
v -0.343965 2.349366 0.700774
v -0.192461 1.293606 0.749656
v -0.229610 1.304875 -0.742689
v -0.229610 1.304875 0.742689
v -0.600000 1.859203 -0.688097
v -0.599997 1.859168 -0.688099
v -0.600000 1.859203 0.688097
v -0.599997 1.859168 0.688099
v -0.274581 1.328912 -0.738964
v 0.443892 2.259550 0.706841
v 0.498882 2.192544 -0.702098
v 0.498882 2.192544 0.702098
v 0.483329 2.211496 0.704512
v 0.443892 2.259550 -0.706841
v 0.483329 2.211496 -0.704512
v 0.424264 1.434938 -0.703821
v 0.454739 1.472072 0.701794
v 0.424264 1.434938 0.703821
v 0.537405 2.120472 -0.705401
v 0.333342 1.360321 -0.721549
v 0.333342 1.360320 0.721549
v 0.537405 2.120472 0.705401
v 0.274582 1.328912 -0.738964
v -0.579410 2.006128 -0.702198
v -0.588471 1.976257 -0.696596
v -0.588471 1.976257 0.696596
v -0.579410 2.006128 0.702198
v 0.248622 2.403368 0.706355
v 0.248622 2.403368 -0.706355
v 0.229610 2.413530 -0.705737
v 0.229610 2.413530 0.705737
v 0.189093 2.425821 0.706159
v 0.219870 2.416484 -0.706925
v 0.219870 2.416484 0.706925
v 0.189093 2.425821 -0.706159
v -0.229609 2.413530 -0.699391
v -0.227378 2.414207 -0.699786
v -0.229609 2.413530 0.699391
v -0.227378 2.414207 0.699786
v 0.000000 2.459202 -0.700639
v -0.067430 2.452561 -0.702700
v 0.000000 2.459202 0.700639
v -0.067430 2.452561 0.702700
v -0.117053 2.447674 -0.697138
v -0.117053 2.447674 0.697138
v -0.498882 1.525861 -0.684786
v -0.454782 1.472125 -0.701741
v -0.424264 1.434938 0.703798
v -0.454782 1.472125 0.701741
v -0.498882 1.525860 0.684787
v -0.424264 1.434938 -0.703798
v -0.333342 1.360321 -0.721549
v -0.333342 1.360321 0.721549
v -0.554328 1.629593 -0.673527
v -0.554328 1.629593 0.673527
v -0.274581 1.328912 -0.738964
v -0.229610 1.304875 0.742689
v -0.274581 1.328912 0.738964
v -0.580489 1.715833 -0.678103
v -0.588471 1.742149 -0.675913
v -0.000000 1.259202 -0.757620
v -0.061328 1.265243 -0.760221
v 0.117054 1.270731 0.753370
v 0.061328 1.265243 0.760221
v -0.000000 1.259202 0.757619
v 0.117054 1.270731 -0.753370
v 0.061328 1.265243 -0.760221
v -0.061328 1.265243 0.760221
v -0.117054 1.270731 0.753370
v -0.117054 1.270731 -0.753370
v 0.229610 1.304874 0.742689
v 0.192461 1.293605 0.749655
v 0.333342 2.358084 -0.702555
v 0.414285 2.291656 -0.704632
v 0.424264 2.283466 -0.703887
v 0.424264 2.283466 0.703887
v 0.414285 2.291656 0.704632
v 0.333342 2.358084 0.702555
v 0.192461 1.293606 -0.749656
v 0.229610 1.304875 -0.742689
v 0.554328 2.088812 -0.700038
v 0.575457 2.019160 -0.700977
v 0.274582 1.328912 -0.738964
v 0.333342 1.360320 0.721549
v 0.274582 1.328912 0.738964
v 0.588471 1.976256 -0.693938
v 0.554328 2.088812 0.700039
v 0.575457 2.019159 0.700977
v 0.588471 1.976256 0.693938
v -0.498881 2.192545 -0.701059
v -0.452508 2.249051 -0.703479
v -0.498881 2.192545 0.701059
v -0.452508 2.249051 0.703479
v -0.424264 2.283467 -0.698706
v -0.424264 2.283467 0.698706
v -0.333341 2.358084 -0.698621
v -0.333341 2.358084 0.698622
v 0.117054 2.447673 0.699786
v 0.002677 2.458939 0.700961
v 0.002677 2.458939 -0.700961
v -0.529635 2.135009 0.709083
v -0.554327 2.088813 0.701424
v 0.117054 2.447673 -0.699786
v -0.529635 2.135009 -0.709083
v -0.554327 2.088813 -0.701424
v -0.343965 2.349366 0.700774
v 0.554328 1.629592 -0.673485
v 0.580029 1.714317 -0.677966
v 0.588471 1.742148 0.675152
v 0.580028 1.714316 0.677966
v 0.554328 1.629592 0.673485
v 0.588471 1.742148 -0.675152
v 0.498882 1.525860 -0.684786
v 0.454739 1.472072 -0.701794
v 0.424264 1.434938 -0.703821
v 0.599386 1.865437 -0.687502
v 0.599386 1.865436 0.687502
v 0.600000 1.859202 -0.685785
v 0.600000 1.859202 0.685785
v 0.498882 1.525860 0.684786
v -0.192461 1.293606 -0.749656
v -0.580489 1.715834 0.678103
v -0.588471 1.742149 0.675913
v -0.343965 2.349366 -0.700774
v -0.192461 1.293606 0.749656
v -0.229610 1.304875 -0.742689
v -0.600000 1.859203 -0.688097
v -0.599997 1.859168 -0.688099
v -0.600000 1.859203 0.688097
v -0.599997 1.859168 0.688099
v 0.443892 2.259550 0.706841
v 0.498882 2.192544 -0.702098
v 0.483329 2.211496 -0.704512
v 0.498882 2.192544 0.702098
v 0.483329 2.211496 0.704512
v 0.443892 2.259550 -0.706841
v 0.454739 1.472072 0.701794
v 0.424264 1.434938 0.703821
v 0.333342 1.360321 -0.721549
v 0.537405 2.120472 -0.705401
v 0.537405 2.120472 0.705401
v -0.588471 1.976257 -0.696596
v -0.579410 2.006128 -0.702198
v -0.579410 2.006128 0.702198
v -0.588471 1.976257 0.696596
v 0.248622 2.403368 -0.706355
v 0.248622 2.403368 0.706355
v 0.229610 2.413530 0.705737
v 0.229610 2.413530 -0.705737
v 0.189093 2.425821 0.706159
v 0.219870 2.416484 -0.706925
v 0.189093 2.425821 -0.706159
v 0.219870 2.416484 0.706925
v 0.000000 2.283405 -0.707005
v 0.000000 2.283405 0.707005
v 0.082758 2.275254 -0.707005
v 0.082758 2.275254 0.707005
v 0.162335 2.251115 -0.707005
v 0.162335 2.251115 0.707005
v 0.235675 2.211914 -0.707005
v 0.235675 2.211914 0.707005
v 0.299957 2.159159 -0.707005
v 0.299957 2.159159 0.707005
v 0.352712 2.094877 -0.707005
v 0.352712 2.094877 0.707005
v 0.391912 2.021538 -0.707005
v 0.391912 2.021538 0.707005
v 0.416052 1.941960 -0.707005
v 0.416052 1.941960 0.707005
v 0.424203 1.859202 -0.707005
v 0.424203 1.859202 0.707005
v 0.416052 1.776444 -0.707005
v 0.416052 1.776444 0.707005
v 0.391913 1.696867 -0.707005
v 0.391913 1.696867 0.707005
v 0.352712 1.623528 -0.707005
v 0.352712 1.623528 0.707005
v 0.299957 1.559245 -0.707005
v 0.299957 1.559245 0.707005
v 0.235675 1.506490 -0.707005
v 0.235675 1.506490 0.707005
v 0.162335 1.467290 -0.707005
v 0.162335 1.467290 0.707005
v 0.082758 1.443150 -0.707005
v 0.082758 1.443150 0.707005
v -0.000000 1.434999 -0.707005
v -0.000000 1.434999 0.707005
v -0.082758 1.443150 -0.707005
v -0.082758 1.443150 0.707005
v -0.162336 1.467290 -0.707005
v -0.162336 1.467290 0.707005
v -0.235675 1.506490 -0.707005
v -0.235675 1.506490 0.707005
v -0.299957 1.559246 -0.707005
v -0.299957 1.559246 0.707005
v -0.352712 1.623528 -0.707005
v -0.352712 1.623528 0.707005
v -0.391913 1.696867 -0.707005
v -0.391913 1.696867 0.707005
v -0.416052 1.776445 -0.707005
v -0.416052 1.776445 0.707005
v -0.424203 1.859203 -0.707005
v -0.424203 1.859203 0.707005
v -0.416052 1.941961 -0.707005
v -0.416052 1.941961 0.707005
v -0.391912 2.021538 -0.707005
v -0.391912 2.021538 0.707005
v -0.352712 2.094877 -0.707005
v -0.352712 2.094877 0.707005
v -0.299956 2.159159 -0.707005
v -0.299956 2.159159 0.707005
v -0.235674 2.211915 -0.707005
v -0.235674 2.211915 0.707005
v -0.162335 2.251115 -0.707005
v -0.162335 2.251115 0.707005
v -0.082757 2.275254 -0.707005
v -0.082757 2.275254 0.707005
v 0.000000 2.283405 -0.707005
v 0.082758 2.275254 -0.707005
v 0.082758 2.275254 0.707005
v 0.000000 2.283405 0.707005
v 0.162335 2.251115 -0.707005
v 0.162335 2.251115 0.707005
v 0.235675 2.211914 -0.707005
v 0.235675 2.211914 0.707005
v 0.299957 2.159159 -0.707005
v 0.299957 2.159159 0.707005
v 0.352712 2.094877 -0.707005
v 0.352712 2.094877 0.707005
v 0.391912 2.021538 -0.707005
v 0.391912 2.021538 0.707005
v 0.416052 1.941960 -0.707005
v 0.416052 1.941960 0.707005
v 0.424203 1.859202 -0.707005
v 0.424203 1.859202 0.707005
v 0.416052 1.776444 -0.707005
v 0.416052 1.776444 0.707005
v 0.391913 1.696867 -0.707005
v 0.391913 1.696867 0.707005
v 0.352712 1.623528 -0.707005
v 0.352712 1.623528 0.707005
v 0.299957 1.559245 -0.707005
v 0.299957 1.559245 0.707005
v 0.235675 1.506490 -0.707005
v 0.235675 1.506490 0.707005
v 0.162335 1.467290 -0.707005
v 0.162335 1.467290 0.707005
v 0.082758 1.443150 -0.707005
v 0.082758 1.443150 0.707005
v -0.000000 1.434999 -0.707005
v -0.000000 1.434999 0.707005
v -0.082758 1.443150 -0.707005
v -0.082758 1.443150 0.707005
v -0.162336 1.467290 -0.707005
v -0.162336 1.467290 0.707005
v -0.235675 1.506490 -0.707005
v -0.235675 1.506490 0.707005
v -0.299957 1.559246 -0.707005
v -0.299957 1.559246 0.707005
v -0.352712 1.623528 -0.707005
v -0.352712 1.623528 0.707005
v -0.391913 1.696867 -0.707005
v -0.391913 1.696867 0.707005
v -0.416052 1.776445 -0.707005
v -0.416052 1.776445 0.707005
v -0.424203 1.859203 -0.707005
v -0.424203 1.859203 0.707005
v -0.416052 1.941961 -0.707005
v -0.416052 1.941961 0.707005
v -0.391912 2.021538 -0.707005
v -0.391912 2.021538 0.707005
v -0.352712 2.094877 -0.707005
v -0.352712 2.094877 0.707005
v -0.299956 2.159159 -0.707005
v -0.299956 2.159159 0.707005
v -0.235674 2.211915 -0.707005
v -0.235674 2.211915 0.707005
v -0.162335 2.251115 -0.707005
v -0.162335 2.251115 0.707005
v -0.082757 2.275254 -0.707005
v -0.082757 2.275254 0.707005
vt 0.237378 0.501442
vt 0.237285 0.971453
vt 0.229885 0.970749
vt 0.284082 0.502176
vt 0.284696 0.968210
vt 0.276691 0.501308
vt 0.307633 0.502602
vt 0.307528 0.969699
vt 0.299474 0.969339
vt 0.076114 0.977364
vt 0.075034 0.497257
vt 0.082223 0.980772
vt 0.222578 0.504145
vt 0.222485 0.968693
vt 0.215097 0.966463
vt 0.315023 0.501835
vt 0.314918 0.970505
vt 0.124872 0.954653
vt 0.123892 0.519255
vt 0.129991 0.518439
vt 0.252916 0.501094
vt 0.252822 0.971583
vt 0.246231 0.972265
vt 0.292854 0.501740
vt 0.292084 0.969280
vt 0.045560 0.955756
vt 0.044579 0.519308
vt 0.051660 0.955174
vt 0.277308 0.969683
vt 0.267918 0.501879
vt 0.094425 0.980683
vt 0.093329 0.493671
vt 0.099438 0.497079
vt 0.088328 0.982101
vt 0.087225 0.492342
vt 0.081127 0.493760
vt 0.112692 0.964526
vt 0.111668 0.509560
vt 0.118779 0.958337
vt 0.105554 0.503867
vt 0.069998 0.970576
vt 0.062861 0.509908
vt 0.068949 0.504134
vt 0.329802 0.503366
vt 0.329698 0.969052
vt 0.322413 0.501732
vt 0.268533 0.970500
vt 0.263798 0.972828
vt 0.260224 0.972662
vt 0.117783 0.515660
vt 0.229978 0.502117
vt 0.244685 0.972065
vt 0.242738 0.973051
vt 0.238827 0.972263
vt 0.057769 0.958782
vt 0.050681 0.519802
vt 0.056774 0.516105
vt 0.337088 0.966230
vt 0.038470 0.515915
vt 0.322308 0.970647
vt 0.260513 0.500044
vt 0.258866 0.973026
vt 0.100518 0.977186
vt 0.106604 0.970309
vt 0.130974 0.955380
vt 0.136083 0.514457
vt 0.232143 0.972549
vt 0.232237 0.500327
vt 0.281566 0.970197
vt 0.280947 0.500445
vt 0.301001 0.970373
vt 0.300243 0.502314
vt 0.301108 0.501631
vt 0.077043 0.494990
vt 0.078133 0.979602
vt 0.215697 0.967295
vt 0.214079 0.508459
vt 0.215572 0.506286
vt 0.310325 0.971302
vt 0.310430 0.501014
vt 0.128563 0.517742
vt 0.129550 0.956098
vt 0.244778 0.500858
vt 0.246326 0.500386
vt 0.046085 0.518387
vt 0.047071 0.956655
vt 0.275767 0.970598
vt 0.275151 0.501190
vt 0.097419 0.494841
vt 0.098510 0.979453
vt 0.090419 0.491477
vt 0.091526 0.982919
vt 0.084026 0.491524
vt 0.085133 0.982966
vt 0.114165 0.510206
vt 0.115186 0.963844
vt 0.063884 0.964890
vt 0.327736 0.970919
vt 0.327842 0.501488
vt 0.261774 0.973167
vt 0.261154 0.499655
vt 0.263178 0.499939
vt 0.225305 0.971054
vt 0.225399 0.501795
vt 0.238921 0.500637
vt 0.242832 0.499865
vt 0.060370 0.510582
vt 0.061391 0.964253
vt 0.337192 0.506226
vt 0.039467 0.959237
vt 0.072392 0.498480
vt 0.073467 0.976180
vt 0.319016 0.973198
vt 0.319122 0.499164
vt 0.291934 0.969930
vt 0.291324 0.500993
vt 0.258962 0.499833
vt 0.102085 0.498263
vt 0.103161 0.975963
vt 0.136069 0.513794
vt 0.138328 0.959197
vt 0.137082 0.959274
vt 0.625335 0.314202
vt 0.637656 0.300229
vt 0.655458 0.313285
vt 0.649564 0.413591
vt 0.628296 0.401451
vt 0.653549 0.398865
vt 0.440646 0.405282
vt 0.472973 0.411969
vt 0.445601 0.424149
vt 0.666301 0.298069
vt 0.648413 0.287671
vt 0.581892 0.387830
vt 0.597488 0.373074
vt 0.612470 0.387465
vt 0.352355 0.331291
vt 0.330149 0.340028
vt 0.325438 0.324339
vt 0.456165 0.360942
vt 0.476080 0.352624
vt 0.481592 0.366473
vt 0.303855 0.334997
vt 0.311252 0.348057
vt 0.501200 0.272985
vt 0.505132 0.266045
vt 0.516211 0.266870
vt 0.498988 0.334237
vt 0.475444 0.338851
vt 0.479670 0.324865
vt 0.594806 0.315007
vt 0.577868 0.300710
vt 0.608440 0.300213
vt 0.485462 0.309593
vt 0.457627 0.315312
vt 0.461758 0.298308
vt 0.492932 0.345496
vt 0.466862 0.279671
vt 0.435195 0.287260
vt 0.438401 0.268278
vt 0.525617 0.288031
vt 0.492353 0.292453
vt 0.454787 0.331105
vt 0.431181 0.322540
vt 0.506263 0.320903
vt 0.514942 0.305572
vt 0.430722 0.354222
vt 0.429997 0.338534
vt 0.453608 0.346050
vt 0.376265 0.304519
vt 0.349735 0.314326
vt 0.347336 0.296312
vt 0.432861 0.305295
vt 0.404502 0.313405
vt 0.405122 0.295240
vt 0.538946 0.344847
vt 0.551611 0.330959
vt 0.566755 0.344455
vt 0.379601 0.355269
vt 0.378846 0.338928
vt 0.404994 0.346735
vt 0.855507 0.226580
vt 0.892801 0.236623
vt 0.885765 0.188057
vt 0.317389 0.288718
vt 0.284489 0.281171
vt 0.314799 0.268419
vt 0.375938 0.286146
vt 0.377206 0.322310
vt 0.404491 0.330564
vt 0.406253 0.276820
vt 0.320813 0.307352
vt 0.345820 0.277228
vt 0.534606 0.318078
vt 0.564315 0.316194
vt 0.514128 0.345197
vt 0.524301 0.332287
vt 0.257765 0.348810
vt 0.287284 0.348394
vt 0.276427 0.364374
vt 0.552877 0.358360
vt 0.628385 0.343586
vt 0.642474 0.328381
vt 0.659301 0.343151
vt 0.546396 0.302494
vt 0.560195 0.285492
vt 0.538540 0.269209
vt 0.543067 0.265145
vt 0.568103 0.263119
vt 0.593087 0.284871
vt 0.597246 0.344025
vt 0.580909 0.329804
vt 0.611830 0.328912
vt 0.537083 0.371704
vt 0.566927 0.372748
vt 0.622954 0.285799
vt 0.611077 0.269184
vt 0.500020 0.356569
vt 0.525480 0.357804
vt 0.375938 0.267130
vt 0.643075 0.273076
vt 0.488786 0.381562
vt 0.508516 0.369681
vt 0.518600 0.384747
vt 0.583091 0.420623
vt 0.578565 0.425384
vt 0.575476 0.425637
vt 0.582243 0.358689
vt 0.613207 0.358707
vt 0.690745 0.342707
vt 0.725358 0.342219
vt 0.707120 0.359743
vt 0.643859 0.358375
vt 0.381569 0.408064
vt 0.412707 0.416524
vt 0.383325 0.427055
vt 0.628051 0.373018
vt 0.673458 0.327233
vt 0.674909 0.358648
vt 0.460459 0.376634
vt 0.466155 0.393500
vt 0.641647 0.386626
vt 0.658220 0.373085
vt 0.576038 0.267925
vt 0.670454 0.387976
vt 0.433381 0.370161
vt 0.380200 0.389706
vt 0.352067 0.398717
vt 0.550297 0.386934
vt 0.497251 0.398486
vt 0.530880 0.401964
vt 0.507884 0.417679
vt 0.598554 0.403220
vt 0.565647 0.403526
vt 0.545524 0.420398
vt 0.253742 0.294839
vt 0.248619 0.273297
vt 0.353850 0.363642
vt 0.352799 0.380659
vt 0.327609 0.371344
vt 0.436651 0.387336
vt 0.405985 0.362899
vt 0.407580 0.380036
vt 0.379497 0.371912
vt 0.354491 0.347447
vt 0.409876 0.398160
vt 0.352314 0.417819
vt 0.324559 0.388439
vt 0.330866 0.355542
vt 0.305070 0.361307
vt 0.721513 0.377560
vt 0.745131 0.360959
vt 0.758259 0.380998
vt 0.239821 0.330734
vt 0.264482 0.314980
vt 0.274965 0.332742
vt 0.961319 0.154605
vt 0.988189 0.147979
vt 0.964758 0.114564
vt 0.289950 0.301425
vt 0.279112 0.259587
vt 0.875187 0.320573
vt 0.864744 0.370068
vt 0.892721 0.361089
vt 0.923517 0.328922
vt 0.296609 0.319409
vt 0.805182 0.346195
vt 0.812838 0.356163
vt 0.811296 0.325889
vt 0.647189 0.251826
vt 0.667701 0.250274
vt 0.669424 0.263165
vt 0.417319 0.427530
vt 0.393624 0.429756
vt 0.743376 0.322947
vt 0.763759 0.341678
vt 0.635521 0.254869
vt 0.087526 0.294873
vt 0.044279 0.290390
vt 0.070065 0.258464
vt 0.126576 0.220451
vt 0.092899 0.219696
vt 0.110900 0.180831
vt 0.603897 0.259584
vt 0.619950 0.256251
vt 0.675073 0.249609
vt 0.671067 0.281335
vt 0.688509 0.374934
vt 0.699491 0.392074
vt 0.276317 0.186424
vt 0.252832 0.174942
vt 0.278357 0.151797
vt 0.728864 0.286936
vt 0.718255 0.307033
vt 0.694922 0.293159
vt 0.130135 0.295078
vt 0.109112 0.261217
vt 0.705526 0.325233
vt 0.591551 0.058726
vt 0.544630 0.078365
vt 0.567720 0.096225
vt 0.685537 0.310586
vt 0.733964 0.397332
vt 0.085842 0.339671
vt 0.063085 0.325561
vt 0.676758 0.404554
vt 0.290699 0.415609
vt 0.287322 0.437316
vt 0.255602 0.424483
vt 0.683688 0.436127
vt 0.676264 0.435670
vt 0.676794 0.422747
vt 0.384988 0.133220
vt 0.362249 0.169292
vt 0.344852 0.132985
vt 0.172606 0.290927
vt 0.190619 0.272099
vt 0.186026 0.290239
vt 0.299272 0.377079
vt 0.267597 0.382408
vt 0.322859 0.407145
vt 0.294283 0.395227
vt 0.655634 0.434698
vt 0.322147 0.427491
vt 0.828349 0.308038
vt 0.861820 0.277072
vt 0.258730 0.402825
vt 0.398670 0.194808
vt 0.388315 0.198654
vt 0.372846 0.188255
vt 0.364823 0.433707
vt 0.346078 0.435699
vt 0.241513 0.367369
vt 0.231794 0.387715
vt 0.423798 0.154854
vt 0.401168 0.168585
vt 0.931510 0.241639
vt 0.917437 0.193881
vt 0.698871 0.274151
vt 0.731867 0.265926
vt 0.590506 0.170870
vt 0.601334 0.177811
vt 0.619655 0.167313
vt 0.701361 0.253288
vt 0.971491 0.241342
vt 0.950797 0.290509
vt 0.786611 0.191023
vt 0.781620 0.220249
vt 0.819816 0.211445
vt 0.633418 0.146740
vt 0.610952 0.103691
vt 0.590023 0.142084
vt 0.637784 0.065809
vt 0.566561 0.125174
vt 0.709602 0.431712
vt 0.705189 0.410946
vt 0.738902 0.418231
vt 0.132364 0.338644
vt 0.108973 0.327579
vt 0.225028 0.220141
vt 0.221618 0.225349
vt 0.192736 0.207874
vt 0.318649 0.095777
vt 0.300260 0.125135
vt 0.274640 0.089032
vt 0.154396 0.325162
vt 0.934433 0.156643
vt 0.908053 0.154328
vt 0.185115 0.308966
vt 0.178407 0.334296
vt 0.222102 0.349313
vt 0.404548 0.095266
vt 0.444040 0.113678
vt 0.423538 0.129051
vt 0.708674 0.103024
vt 0.730523 0.136086
vt 0.758571 0.094017
vt 0.421358 0.055415
vt 0.442521 0.088144
vt 0.462140 0.071741
vt 0.250050 0.060691
vt 0.238379 0.082054
vt 0.213857 0.055824
vt 0.905432 0.286260
vt 0.656760 0.107177
vt 0.690824 0.067177
vt 0.159937 0.216583
vt 0.186571 0.252822
vt 0.756579 0.165709
vt 0.741067 0.182009
vt 0.748959 0.188295
vt 0.882638 0.147867
vt 0.904125 0.115889
vt 0.030479 0.250884
vt 0.059054 0.214267
vt 0.321962 0.165181
vt 0.208300 0.238812
vt 0.198503 0.254936
vt 0.679440 0.146223
vt 0.380553 0.062039
vt 0.364250 0.098671
vt 0.333714 0.063914
vt 0.082971 0.177676
vt 0.167837 0.139585
vt 0.146110 0.145729
vt 0.148427 0.112651
vt 0.773217 0.208945
vt 0.811578 0.283860
vt 0.813538 0.304875
vt 0.318791 0.176866
vt 0.300140 0.178923
vt 0.797433 0.243741
vt 0.805725 0.263347
vt 0.819437 0.262976
vt 0.264662 0.190735
vt 0.257105 0.195404
vt 0.758073 0.194359
vt 0.681741 0.159792
vt 0.702534 0.164220
vt 0.224051 0.193916
vt 0.233736 0.211188
vt 0.147861 0.259383
vt 0.785437 0.060951
vt 0.799543 0.084731
vt 0.826242 0.053864
vt 0.238675 0.133703
vt 0.216495 0.151189
vt 0.207236 0.116951
vt 0.100934 0.147094
vt 0.123660 0.148256
vt 0.858636 0.137450
vt 0.836502 0.123280
vt 0.827137 0.162740
vt 0.801201 0.143590
vt 0.078368 0.142166
vt 0.096900 0.113625
vt 0.025292 0.203875
vt 0.056428 0.133381
vt 0.055259 0.170147
vt 0.933255 0.087070
vt 0.918764 0.086322
vt 0.924047 0.119002
vt 0.778215 0.120532
vt 0.950144 0.194918
vt 0.035651 0.120641
vt 0.028215 0.158055
vt 0.157824 0.078650
vt 0.146683 0.084327
vt 0.122241 0.025141
vt 0.855507 0.177634
vt 0.983475 0.190883
vt 0.167848 0.070930
vt 0.721733 0.173690
vt 0.728499 0.175615
vt 0.742475 0.064515
vt 0.192034 0.164864
vt 0.165884 0.174414
vt 0.961839 0.080330
vt 0.974973 0.072806
vt 0.928829 0.013115
vt 0.138668 0.179733
vt 0.816673 0.105609
vt 0.837626 0.071745
vt 0.188369 0.129932
vt 0.860733 0.045579
vt 0.869153 0.058147
vt 0.179576 0.097470
vt 0.258141 0.112838
vt 0.176423 0.061311
vt 0.193003 0.085905
vt 0.248519 0.199934
vt 0.224019 0.100896
vt 0.885107 0.109422
vt 0.288058 0.062644
vt 0.076108 0.071346
vt 0.086442 0.079167
vt 0.064292 0.099000
vt 0.131482 0.115973
vt 0.134765 0.087845
vt 0.164591 0.106441
vt 0.904718 0.082926
vt 0.122416 0.089121
vt 0.109996 0.088103
vt 0.114167 0.116318
vt 0.204533 0.071943
vt 0.183213 0.049956
vt 0.984502 0.106774
vt 0.851467 0.087139
vt 0.867419 0.099773
vt 0.879537 0.068682
vt 0.321693 0.439346
vt 0.311268 0.440453
vt 0.944421 0.118606
vt 0.947765 0.085087
vt 0.891515 0.076998
vt 0.080118 0.107856
vt 0.097875 0.084776
vt 0.049945 0.087102
vt 0.617967 0.418379
vt 0.643699 0.431987
vt 0.754636 0.302564
vt 0.228236 0.310688
vt 0.067312 0.061453
vt 0.497513 0.424607
vt 0.512451 0.424499
vt 0.329572 0.259304
vt 0.313251 0.256592
vt 0.453243 0.426100
vt 0.446078 0.426378
vt 0.302738 0.255780
vt 0.443814 0.426300
vt 0.337576 0.177188
vt 0.390749 0.429860
vt 0.489140 0.266535
vt 0.431692 0.265889
vt 0.490204 0.266358
vt 0.660492 0.158202
vt 0.594474 0.261523
vt 0.337742 0.436178
vt 0.628023 0.431045
vt 0.523440 0.423363
vt 0.383093 0.264120
vt 0.376267 0.263134
vt 0.602094 0.426498
vt 0.436418 0.266180
vt 0.384023 0.431037
vt 0.370048 0.432383
vt 0.362186 0.262183
vt 0.438672 0.266038
vt 0.445853 0.266114
vt 0.541405 0.265545
vt 0.571078 0.263298
vt 0.548723 0.423976
vt 0.550396 0.424324
vt 0.842185 0.350079
vt 0.811410 0.320643
vt 0.804568 0.347187
vt 0.635435 0.254459
vt 0.439121 0.426724
vt 0.701167 0.243815
vt 0.700874 0.243926
vt 0.289879 0.182421
vt 0.282431 0.185424
vt 0.548142 0.048630
vt 0.710284 0.441180
vt 0.709980 0.441076
vt 0.195918 0.262134
vt 0.185677 0.304605
vt 0.643652 0.432399
vt 0.368470 0.186800
vt 0.388989 0.199426
vt 0.624427 0.166084
vt 0.790307 0.233737
vt 0.784660 0.226586
vt 0.215824 0.230967
vt 0.187745 0.327624
vt 0.459370 0.046273
vt 0.765735 0.202227
vt 0.807395 0.271801
vt 0.326345 0.177605
vt 0.713724 0.169332
vt 0.673128 0.159803
vt 0.241096 0.206143
vt 0.287261 0.446099
vt 0.496435 0.424460
vt 0.337942 0.259547
vt 0.278241 0.250817
vt 0.355766 0.180943
vt 0.462718 0.266785
vt 0.470024 0.424955
vt 0.385974 0.264142
vt 0.409844 0.265698
vt 0.639586 0.160608
vt 0.611684 0.428169
vt 0.356845 0.261008
vt 0.453993 0.505205
vt 0.461079 0.974537
vt 0.455708 0.974604
vt 0.459364 0.505137
vt 0.466450 0.974470
vt 0.464736 0.505070
vt 0.471822 0.974403
vt 0.470107 0.505003
vt 0.477193 0.974336
vt 0.475478 0.504936
vt 0.482564 0.974269
vt 0.480849 0.504869
vt 0.487935 0.974202
vt 0.486220 0.504802
vt 0.493307 0.974135
vt 0.491591 0.504735
vt 0.498678 0.974068
vt 0.497153 0.504665
vt 0.504239 0.973998
vt 0.498868 0.974065
vt 0.502525 0.504598
vt 0.509610 0.973931
vt 0.507896 0.504532
vt 0.514981 0.973864
vt 0.513267 0.504464
vt 0.520353 0.973797
vt 0.518638 0.504398
vt 0.525724 0.973730
vt 0.524009 0.504330
vt 0.531095 0.973663
vt 0.529380 0.504263
vt 0.536466 0.973596
vt 0.534752 0.504196
vt 0.541838 0.973529
vt 0.540123 0.504129
vt 0.547209 0.973462
vt 0.545494 0.504062
vt 0.552580 0.973395
vt 0.550865 0.503995
vt 0.557951 0.973328
vt 0.556236 0.503928
vt 0.563322 0.973261
vt 0.561607 0.503861
vt 0.568694 0.973194
vt 0.566979 0.503794
vt 0.574065 0.973127
vt 0.572350 0.503727
vt 0.579436 0.973060
vt 0.577721 0.503660
vt 0.584807 0.972993
vt 0.411024 0.505740
vt 0.418109 0.975073
vt 0.412738 0.975139
vt 0.416395 0.505673
vt 0.423481 0.975006
vt 0.421766 0.505606
vt 0.428852 0.974939
vt 0.427137 0.505539
vt 0.434223 0.974872
vt 0.432509 0.505472
vt 0.439594 0.974805
vt 0.437880 0.505406
vt 0.444966 0.974738
vt 0.748841 0.965816
vt 0.702224 0.905528
vt 0.894388 0.853272
vt 0.443251 0.505338
vt 0.450337 0.974671
vt 0.448622 0.505271
vt 0.807140 0.528033
vt 0.890971 0.636447
vt 0.782556 0.720278
vt 0.496963 0.504668
vt 0.583092 0.503592
vt 0.698973 0.886282
vt 0.699540 0.866771
vt 0.703901 0.847745
vt 0.711891 0.829935
vt 0.723201 0.814027
vt 0.772178 0.783318
vt 0.737398 0.800631
vt 0.753936 0.790262
vt 0.791425 0.780067
vt 0.847771 0.792985
vt 0.810936 0.780633
vt 0.829962 0.784995
vt 0.863679 0.804295
vt 0.877075 0.818492
vt 0.887445 0.835030
vt 0.897639 0.872519
vt 0.884722 0.928866
vt 0.897073 0.892030
vt 0.892711 0.911056
vt 0.873411 0.944774
vt 0.859214 0.958170
vt 0.842677 0.968539
vt 0.824434 0.975483
vt 0.805187 0.978734
vt 0.785676 0.978167
vt 0.766650 0.973806
vt 0.732933 0.954505
vt 0.719537 0.940308
vt 0.709168 0.923771
vt 0.764040 0.716033
vt 0.746708 0.708257
vt 0.731225 0.697249
vt 0.718188 0.683432
vt 0.708096 0.667338
vt 0.698726 0.611864
vt 0.701339 0.649584
vt 0.698175 0.630852
vt 0.702971 0.593347
vt 0.710746 0.576015
vt 0.721754 0.560532
vt 0.735571 0.547495
vt 0.751666 0.537404
vt 0.769420 0.530646
vt 0.788152 0.527482
vt 0.825657 0.532278
vt 0.842989 0.540054
vt 0.858472 0.551062
vt 0.871509 0.564879
vt 0.881601 0.580973
vt 0.888358 0.598727
vt 0.891522 0.617459
vt 0.886726 0.654964
vt 0.878950 0.672296
vt 0.867942 0.687778
vt 0.854125 0.700816
vt 0.838031 0.710907
vt 0.820276 0.717665
vt 0.801545 0.720829
vn -0.8819 -0.4714 0.0000
vn 0.0980 -0.9952 0.0000
vn 0.6344 -0.7730 0.0000
vn -0.2903 0.9569 0.0000
vn -0.9952 -0.0980 0.0000
vn 0.7730 -0.6344 0.0000
vn 0.9569 0.2903 0.0000
vn -0.6344 -0.7730 0.0000
vn 0.4714 -0.8819 0.0000
vn -0.9569 0.2903 0.0000
vn -0.0980 -0.9952 0.0000
vn 0.2903 0.9569 0.0000
vn 0.0980 0.9952 0.0000
vn -0.0980 0.9952 0.0000
vn 0.7730 0.6344 0.0000
vn 0.6344 0.7730 0.0000
vn -0.6344 0.7730 0.0000
vn 0.9569 -0.2903 0.0000
vn -0.2903 -0.9569 -0.0001
vn 0.8819 0.4714 0.0000
vn -0.9569 -0.2903 0.0000
vn -0.7730 -0.6344 0.0001
vn -0.8819 0.4714 -0.0000
vn -0.7730 0.6344 0.0000
vn 0.9952 -0.0980 0.0000
vn -0.9952 0.0980 0.0000
vn -0.4714 0.8819 0.0000
vn 0.8819 -0.4714 0.0000
vn 0.2903 -0.9569 0.0000
vn -0.4714 -0.8819 0.0000
vn 0.4714 0.8819 0.0000
vn 0.9952 0.0980 0.0000
vn 0.6344 -0.7730 -0.0001
vn 0.6344 -0.7730 0.0001
vn 0.7730 -0.6344 -0.0001
vn -0.0980 -0.9952 -0.0010
vn 0.2903 0.9569 0.0001
vn -0.0980 0.9952 -0.0001
vn -0.2903 -0.9569 0.0000
vn -0.2903 -0.9569 0.0003
vn -0.7730 -0.6344 0.0000
vn 0.2903 -0.9569 0.0012
vn 0.2903 -0.9569 -0.0019
vn 0.9954 0.0954 -0.0055
vn 0.9953 0.0966 0.0053
vn -0.7380 0.6017 -0.3054
vn -0.7474 0.5051 -0.4315
vn -0.8384 0.4607 -0.2910
vn -0.6615 0.3572 0.6594
vn -0.6414 0.5051 0.5774
vn -0.7396 0.4051 0.5374
vn 0.3033 0.7271 0.6158
vn 0.1157 0.7256 0.6783
vn 0.2415 0.6238 0.7433
vn -0.8315 0.3572 -0.4253
vn -0.7396 0.4051 -0.5374
vn -0.4919 0.7271 0.4788
vn -0.6073 0.7271 0.3199
vn -0.6323 0.6238 0.4594
vn 0.7766 0.6017 -0.1867
vn 0.8583 0.5051 -0.0902
vn 0.8494 0.4607 -0.2573
vn 0.2660 0.9444 0.1933
vn 0.1361 0.9857 0.0988
vn 0.0886 0.9580 0.2727
vn 0.9228 0.3572 -0.1447
vn 0.9142 0.4051 0.0000
vn -0.0673 0.6930 -0.7178
vn -0.1020 0.6167 -0.7805
vn -0.1477 0.6165 -0.7733
vn -0.0520 0.9857 -0.1600
vn 0.1361 0.9857 -0.0988
vn 0.0886 0.9580 -0.2727
vn -0.6073 0.7271 -0.3199
vn -0.4919 0.7271 -0.4788
vn -0.6323 0.6238 -0.4594
vn 0.0350 0.9016 -0.4310
vn 0.2250 0.9016 -0.3693
vn 0.1729 0.8287 -0.5323
vn 0.0000 1.0000 0.0000
vn 0.1157 0.7256 -0.6783
vn 0.3033 0.7271 -0.6158
vn 0.2415 0.6238 -0.7433
vn -0.1988 0.7655 -0.6119
vn -0.0187 0.8119 -0.5834
vn 0.2660 0.9444 -0.1933
vn 0.3975 0.8709 -0.2888
vn -0.1016 0.9444 -0.3127
vn -0.1518 0.8709 -0.4673
vn 0.4208 0.9016 0.0999
vn 0.4208 0.9016 -0.0999
vn 0.2867 0.9580 0.0000
vn 0.6267 0.6323 -0.4553
vn 0.7525 0.5517 -0.3595
vn 0.7089 0.4817 -0.5151
vn 0.3580 0.8119 -0.4610
vn 0.5205 0.7655 -0.3782
vn 0.4764 0.6930 -0.5411
vn -0.3288 0.9444 0.0000
vn -0.3991 0.9016 -0.1665
vn -0.4913 0.8709 0.0000
vn 0.6794 0.7271 0.0982
vn 0.6794 0.7271 -0.0982
vn 0.5597 0.8287 0.0000
vn 0.6494 -0.3956 -0.6494
vn 0.8183 -0.3956 -0.4169
vn 0.7247 -0.4446 -0.5265
vn 0.7699 0.3072 -0.5593
vn 0.8050 0.0996 -0.5849
vn 0.6941 0.2022 -0.6908
vn 0.5745 0.5517 -0.6046
vn 0.6619 0.6930 -0.2858
vn 0.5491 0.8119 -0.1981
vn 0.4172 0.6007 -0.6819
vn 0.8209 0.3947 -0.4126
vn 0.6455 0.3942 -0.6541
vn -0.2817 0.9016 -0.3281
vn -0.4528 0.8287 -0.3290
vn -0.1682 0.9857 0.0000
vn -0.2320 0.9580 -0.1685
vn 0.9979 0.0645 0.0000
vn 0.9670 0.2548 0.0000
vn 0.9724 0.1708 0.1588
vn -0.3991 0.9016 0.1665
vn -0.7747 0.6323 0.0000
vn -0.8201 0.5517 -0.1514
vn -0.8763 0.4817 0.0000
vn -0.3277 0.8119 -0.4830
vn -0.3669 0.6915 -0.6223
vn -0.2350 0.6254 -0.7440
vn -0.3067 0.5632 -0.7673
vn -0.3100 0.5969 -0.7400
vn -0.5185 0.6017 -0.6075
vn -0.6434 0.7655 0.0000
vn -0.5606 0.8119 -0.1625
vn -0.7035 0.6930 -0.1578
vn -0.2817 0.9016 0.3281
vn -0.4528 0.8287 0.3290
vn -0.6414 0.5051 -0.5774
vn -0.5359 0.4607 -0.7074
vn -0.0520 0.9857 0.1600
vn -0.2320 0.9580 0.1685
vn 0.5072 0.4607 -0.7283
vn -0.6615 0.3572 -0.6594
vn 0.0350 0.9016 0.4310
vn -0.1016 0.9444 0.3127
vn -0.1518 0.8709 0.4673
vn -0.3838 0.5552 0.7378
vn -0.3420 0.5193 0.7832
vn -0.3100 0.5969 0.7400
vn -0.5606 0.8119 0.1625
vn -0.7035 0.6930 0.1578
vn -0.9516 0.3072 0.0000
vn -0.9950 0.0996 0.0000
vn -0.9676 0.2022 0.1509
vn -0.8201 0.5517 0.1514
vn 0.5745 0.5517 0.6046
vn 0.4172 0.6007 0.6819
vn 0.5072 0.4607 0.7283
vn -0.7380 0.6017 0.3054
vn -0.9067 0.3947 -0.1487
vn -0.9067 0.3947 0.1487
vn 0.2250 0.9016 0.3693
vn 0.1729 0.8287 0.5323
vn -0.7474 0.5051 0.4315
vn -0.8384 0.4607 0.2910
vn -0.3838 0.5552 -0.7378
vn -0.8315 0.3572 0.4253
vn 0.3975 0.8709 0.2888
vn 0.6267 0.6323 0.4553
vn 0.7089 0.4817 0.5151
vn -0.3277 0.8119 0.4830
vn -0.0187 0.8119 0.5834
vn -0.1988 0.7655 0.6119
vn -0.0673 0.6930 0.7178
vn -0.5185 0.6017 0.6075
vn -0.3669 0.6915 0.6223
vn -0.2350 0.6254 0.7440
vn 0.8888 -0.0193 -0.4579
vn 0.8021 -0.1032 -0.5881
vn 0.7766 0.6017 0.1867
vn 0.7525 0.5517 0.3595
vn 0.8494 0.4607 0.2573
vn 0.3580 0.8119 0.4610
vn 0.5491 0.8119 0.1981
vn 0.5205 0.7655 0.3782
vn 0.6619 0.6930 0.2858
vn 0.7816 0.6238 0.0000
vn 0.4764 0.6930 0.5411
vn 0.6455 0.3942 0.6541
vn 0.8209 0.3947 0.4126
vn 0.8583 0.5051 0.0902
vn 0.9228 0.3572 0.1447
vn -0.9493 0.0842 0.3027
vn -0.9882 -0.0193 0.1519
vn -0.9467 -0.1113 0.3023
vn 0.9865 -0.0371 -0.1593
vn 0.9460 0.0842 -0.3131
vn 0.9724 0.1708 -0.1588
vn 0.8600 -0.4918 0.1362
vn 0.7758 -0.4918 0.3953
vn 0.8031 -0.5357 0.2609
vn 0.8715 0.2022 -0.4467
vn 0.7064 -0.0225 -0.7074
vn 0.8693 -0.2172 -0.4440
vn 0.9435 -0.1113 -0.3119
vn 0.9632 -0.2209 -0.1532
vn 0.9100 0.2904 -0.2958
vn 0.6777 -0.1325 -0.7233
vn 0.7015 -0.1289 -0.7009
vn -0.6043 0.1903 -0.7737
vn -0.6397 0.1192 -0.7593
vn -0.6934 0.1708 -0.7000
vn 0.3761 0.5555 0.7416
vn 0.4231 0.5129 0.7469
vn -0.9882 -0.0193 -0.1519
vn -0.9948 -0.1019 0.0000
vn -0.5528 0.2879 -0.7820
vn -0.9642 -0.2172 0.1518
vn -0.9642 -0.2172 -0.1518
vn -0.9488 -0.3158 0.0000
vn -0.8183 -0.3956 0.4169
vn -0.9071 -0.3956 0.1437
vn -0.8519 -0.4446 0.2768
vn -0.4752 0.4325 -0.7662
vn -0.5059 0.3823 -0.7732
vn -0.6558 0.0510 -0.7531
vn -0.7823 0.2548 -0.5684
vn -0.9101 0.2904 0.2956
vn -0.8800 0.1708 0.4431
vn 0.2486 -0.3806 0.8907
vn 0.1437 -0.3956 0.9071
vn 0.4169 -0.3956 0.8183
vn -0.8918 -0.0371 -0.4510
vn -0.9493 0.0842 -0.3027
vn -0.8800 0.1708 -0.4431
vn -0.8693 -0.2209 0.4422
vn -0.9023 -0.3160 0.2931
vn -0.9676 0.2022 -0.1509
vn -0.9467 -0.1113 -0.3023
vn -0.9101 0.2904 -0.2956
vn -0.8918 -0.0371 0.4510
vn -0.7823 0.2548 0.5684
vn 0.8050 0.0996 0.5849
vn 0.7064 -0.0225 0.7074
vn 0.8021 -0.1032 0.5881
vn -0.6558 0.0510 0.7531
vn -0.6397 0.1192 0.7593
vn -0.6934 0.1708 0.7000
vn 0.8693 -0.2172 0.4440
vn 0.6915 -0.2138 0.6900
vn 0.7676 -0.3158 0.5577
vn -0.6899 -0.2167 0.6906
vn -0.5729 -0.2211 0.7892
vn -0.5730 -0.2184 0.7899
vn 0.9100 0.2904 0.2958
vn 0.9460 0.0842 0.3131
vn 0.7699 0.3072 0.5593
vn 0.8715 0.2022 0.4467
vn -0.6043 0.1903 0.7737
vn 0.6941 0.2022 0.6908
vn 0.6915 -0.2138 -0.6900
vn 0.7676 -0.3158 -0.5577
vn 0.8888 -0.0193 0.4579
vn 0.6777 -0.1325 0.7233
vn 0.7015 -0.1289 0.7009
vn 0.5846 0.3687 0.7227
vn 0.6142 0.3013 0.7293
vn 0.9865 -0.0371 0.1593
vn 0.9435 -0.1113 0.3119
vn 0.9071 -0.3956 -0.1437
vn 0.8519 -0.4446 -0.2768
vn -0.8073 0.0645 -0.5865
vn -0.8000 -0.1197 -0.5879
vn -0.7024 -0.0425 -0.7105
vn -0.6565 -0.1018 -0.7475
vn -0.6960 -0.1385 -0.7045
vn 0.9071 -0.3956 0.1437
vn 0.9487 -0.3161 0.0000
vn 0.1437 -0.3956 -0.9071
vn 0.2486 -0.3806 -0.8907
vn 0.4169 -0.3956 -0.8183
vn -0.6899 -0.2167 -0.6906
vn -0.8693 -0.2209 -0.4422
vn -0.9023 -0.3160 -0.2931
vn -0.7024 -0.0425 0.7105
vn -0.8073 0.0645 0.5865
vn -0.8000 -0.1197 0.5879
vn -0.2486 -0.3806 0.8907
vn -0.2838 -0.3956 0.8734
vn -0.4169 -0.3956 0.8183
vn 0.8183 -0.3956 0.4169
vn 0.6494 -0.3956 0.6494
vn 0.7247 -0.4446 0.5265
vn 0.8600 -0.4918 -0.1362
vn 0.7758 -0.4918 -0.3953
vn -0.6960 -0.1385 0.7045
vn 0.9930 -0.1181 0.0000
vn 0.9632 -0.2209 0.1532
vn -0.6494 -0.3956 -0.6494
vn -0.4169 -0.3956 -0.8183
vn -0.5265 -0.4446 -0.7247
vn 0.6157 -0.4918 0.6157
vn 0.6831 -0.5357 0.4963
vn 0.9023 -0.3160 -0.2933
vn -0.7675 -0.3161 -0.5576
vn -0.8183 -0.3956 -0.4169
vn -0.6494 -0.3956 0.6494
vn -0.5571 -0.3160 0.7679
vn -0.1437 -0.3956 -0.9071
vn -0.1474 -0.3348 -0.9307
vn -0.0588 -0.3725 -0.9261
vn 0.6157 -0.4918 -0.6156
vn 0.6831 -0.5357 -0.4963
vn -0.9071 -0.3956 -0.1437
vn 0.5572 -0.3160 0.7678
vn -0.4275 -0.3325 0.8406
vn -0.4284 -0.3133 0.8475
vn -0.5571 -0.3160 -0.7679
vn 0.9023 -0.3160 0.2933
vn -0.8957 -0.4446 0.0000
vn -0.3953 -0.4918 0.7758
vn -0.6157 -0.4918 0.6156
vn -0.4963 -0.5357 0.6831
vn 0.1474 -0.3348 -0.9307
vn 0.5734 -0.2211 -0.7888
vn 0.5736 -0.2184 -0.7895
vn 0.4284 -0.3138 0.8473
vn 0.4275 -0.3325 0.8406
vn 0.4275 -0.3325 -0.8406
vn 0.4284 -0.3138 -0.8473
vn 0.5572 -0.3160 -0.7678
vn 0.1474 -0.3348 0.9307
vn 0.0588 -0.3725 0.9261
vn 0.0000 -0.3956 -0.9184
vn -0.4284 -0.3133 -0.8475
vn -0.4275 -0.3325 -0.8406
vn -0.1437 -0.3956 0.9071
vn -0.1474 -0.3348 0.9307
vn -0.7675 -0.3161 0.5576
vn -0.6157 -0.4918 -0.6156
vn -0.3953 -0.4918 -0.7758
vn -0.4963 -0.5357 -0.6831
vn 0.2768 -0.4446 0.8519
vn 0.0000 -0.4446 0.8957
vn 0.1362 -0.4918 0.8600
vn -0.8600 -0.4918 0.1362
vn -0.7758 -0.4918 0.3953
vn 0.3953 -0.4918 -0.7758
vn 0.1362 -0.4918 -0.8600
vn 0.2768 -0.4446 -0.8519
vn 0.0000 -0.4446 -0.8957
vn -0.8600 -0.4918 -0.1362
vn -0.8444 -0.5357 0.0000
vn -0.7758 -0.4918 -0.3953
vn -0.8519 -0.4446 -0.2768
vn 0.7901 -0.6000 -0.1251
vn 0.7128 -0.6000 -0.3632
vn 0.8031 -0.5357 -0.2609
vn -0.2768 -0.4446 -0.8519
vn 0.8957 -0.4446 0.0000
vn -0.7247 -0.4446 -0.5265
vn -0.1251 -0.6000 0.7901
vn -0.3632 -0.6000 0.7128
vn 0.0000 -1.0000 0.0000
vn 0.5265 -0.4446 -0.7247
vn 0.8519 -0.4446 0.2768
vn 0.1251 -0.6000 0.7901
vn -0.2838 -0.3956 -0.8734
vn -0.2486 -0.3806 -0.8907
vn -0.2768 -0.4446 0.8519
vn -0.5265 -0.4446 0.7247
vn 0.7128 -0.6000 0.3632
vn 0.5657 -0.6000 0.5656
vn -0.7247 -0.4446 0.5265
vn -0.1362 -0.4918 -0.8600
vn -0.2609 -0.5357 -0.8031
vn -0.1362 -0.4918 0.8600
vn -0.3632 -0.6000 -0.7128
vn -0.1251 -0.6000 -0.7901
vn 0.0000 -0.5357 0.8444
vn 0.5265 -0.4446 0.7247
vn 0.3632 -0.6000 0.7128
vn 0.2609 -0.5357 0.8031
vn 0.0000 -0.3956 0.9184
vn 0.3953 -0.4918 0.7758
vn 0.4963 -0.5357 -0.6831
vn -0.5657 -0.6000 -0.5656
vn -0.7128 -0.6000 -0.3632
vn -0.6831 -0.5357 -0.4963
vn -0.6831 -0.5357 0.4963
vn -0.5657 -0.6000 0.5656
vn -0.2609 -0.5357 0.8031
vn 0.5657 -0.6000 -0.5656
vn -0.7128 -0.6000 0.3632
vn -0.7901 -0.6000 0.1251
vn -0.8031 -0.5357 0.2609
vn 0.4963 -0.5357 0.6831
vn 0.0000 -0.5357 -0.8444
vn 0.2609 -0.5357 -0.8031
vn 0.1251 -0.6000 -0.7901
vn 0.6485 0.1287 0.7503
vn 0.6634 0.0707 0.7449
vn 0.8444 -0.5357 0.0000
vn 0.7901 -0.6000 0.1251
vn 0.3632 -0.6000 -0.7128
vn -0.8031 -0.5357 -0.2609
vn -0.7901 -0.6000 -0.1251
vn -0.5359 0.4607 0.7074
vn -0.5527 0.2879 0.7820
vn -0.0356 0.6071 0.7938
vn -0.1020 0.6167 0.7805
vn 0.6085 0.1949 -0.7692
vn 0.6485 0.1287 -0.7503
vn 0.1361 0.6415 0.7549
vn 0.2044 0.5613 0.8020
vn 0.6634 0.0707 -0.7449
vn 0.2607 0.5367 0.8025
vn 0.5734 -0.2211 0.7888
vn 0.4247 0.4459 0.7879
vn 0.0384 0.6571 -0.7528
vn 0.3313 0.5744 -0.7485
vn -0.0355 0.6071 -0.7938
vn -0.5729 -0.2211 -0.7892
vn -0.4407 0.4702 -0.7646
vn 0.6085 0.1949 0.7692
vn -0.5059 0.3823 0.7732
vn -0.1477 0.6165 0.7733
vn 0.4248 0.4459 -0.7879
vn 0.4669 0.4064 -0.7853
vn -0.4407 0.4702 0.7646
vn 0.2607 0.5366 -0.8025
vn 0.4670 0.4064 0.7853
vn 0.5670 0.3815 0.7300
vn 0.5670 0.3815 -0.7300
vn 0.2044 0.5613 -0.8020
vn 0.1361 0.6415 -0.7549
vn -0.2487 0.5640 -0.7874
vn -0.3420 0.5193 -0.7831
vn -0.2487 0.5640 0.7874
vn -0.3067 0.5632 0.7673
vn 0.6518 -0.1547 -0.7424
vn 0.6572 -0.0754 -0.7499
vn -0.5091 0.2596 -0.8206
vn 0.3313 0.5744 0.7485
vn -0.6243 -0.0100 -0.7811
vn 0.3617 -0.3643 0.8581
vn 0.2838 -0.3956 0.8734
vn -0.6559 -0.0994 0.7482
vn -0.6228 -0.0051 0.7823
vn -0.5220 -0.2545 0.8141
vn -0.6447 -0.1613 0.7472
vn -0.5090 0.2596 0.8206
vn 0.6518 -0.1547 0.7424
vn 0.6572 -0.0755 0.7499
vn -0.6447 -0.1613 -0.7472
vn 0.3617 -0.3643 -0.8581
vn 0.2838 -0.3956 -0.8734
vn -0.3617 -0.3643 0.8581
vn 0.0588 -0.3725 -0.9261
vn 0.5222 -0.2548 -0.8138
vn 0.5222 -0.2548 0.8138
vn -0.3617 -0.3643 -0.8581
vn -0.5220 -0.2545 -0.8141
vn -0.0588 -0.3725 0.9261
vn 0.0384 0.6571 0.7528
vn 0.6142 0.3013 -0.7293
vn 0.5736 -0.2184 0.7895
vn 0.1060 0.6543 -0.7487
vn 0.1060 0.6543 0.7487
vn 0.4231 0.5129 -0.7469
vn 0.3761 0.5555 -0.7416
vn -0.5730 -0.2184 -0.7899
vn -0.4752 0.4325 0.7662
vn 0.5846 0.3687 -0.7227
vn 0.1951 0.9808 0.0000
vn 0.3827 0.9239 0.0000
vn 0.5556 0.8314 0.0000
vn 0.7071 0.7071 0.0000
vn 0.8314 0.5556 0.0000
vn 0.9239 0.3827 0.0000
vn 0.9808 0.1951 0.0000
vn 1.0000 0.0000 0.0000
vn 0.9808 -0.1951 0.0000
vn 0.9239 -0.3827 0.0000
vn 0.8314 -0.5556 0.0000
vn 0.7071 -0.7071 0.0000
vn 0.5556 -0.8314 0.0000
vn 0.3827 -0.9239 0.0000
vn 0.1951 -0.9808 0.0000
vn -0.1951 -0.9808 0.0000
vn -0.3827 -0.9239 0.0000
vn -0.5556 -0.8314 0.0000
vn -0.7071 -0.7071 0.0000
vn -0.8314 -0.5556 0.0000
vn -0.9239 -0.3827 0.0000
vn -0.9808 -0.1951 0.0000
vn -1.0000 0.0000 0.0000
vn -0.9808 0.1951 0.0000
vn -0.9239 0.3827 0.0000
vn -0.8314 0.5556 0.0000
vn -0.7071 0.7071 0.0000
vn -0.5556 0.8314 0.0000
vn -0.3827 0.9239 0.0000
vn 0.0000 0.0000 1.0000
vn -0.1951 0.9808 0.0000
vn 0.0000 0.0000 -1.0000
s off
f 407/1/1 527/2/1 358/3/1
f 440/4/2 321/5/2 318/6/2
f 490/7/3 489/8/3 393/9/3
f 356/10/4 355/11/4 341/12/4
f 347/13/5 346/14/5 387/15/5
f 487/16/6 363/17/6 489/8/6
f 330/18/7 329/19/7 390/20/7
f 353/21/8 468/22/8 469/23/8
f 316/24/9 393/9/9 314/25/9
f 381/26/10 379/27/10 506/28/10
f 318/6/11 435/29/11 493/30/11
f 343/31/12 344/32/12 398/33/12
f 335/34/13 336/35/13 344/32/13
f 341/12/14 339/36/14 335/34/14
f 328/37/15 326/38/15 324/39/15
f 328/37/16 331/40/16 326/38/16
f 416/41/17 411/42/17 415/43/17
f 421/44/18 420/45/18 375/46/18
f 498/47/19 430/48/19 425/49/19
f 330/18/20 441/50/20 329/19/20
f 359/51/21 358/3/21 346/14/21
f 470/52/22 409/53/22 528/54/22
f 384/55/23 376/56/23 382/57/23
f 384/55/24 382/57/24 411/42/24
f 421/44/25 400/58/25 420/45/25
f 381/26/26 387/59/26 379/27/26
f 416/41/27 415/43/27 355/11/27
f 375/46/28 374/60/28 487/16/28
f 316/24/29 314/25/29 440/4/29
f 426/61/30 425/49/30 424/62/30
f 399/63/31 398/33/31 333/64/31
f 392/65/32 390/20/32 400/66/32
f 414/67/1 358/3/1 527/2/1
f 358/3/1 359/51/1 407/1/1
f 359/51/1 417/68/1 407/1/1
f 436/69/2 435/29/2 321/5/2
f 435/29/2 318/6/2 321/5/2
f 318/6/2 319/70/2 440/4/2
f 394/71/33 393/9/33 489/8/33
f 393/9/3 395/72/3 490/7/3
f 395/72/34 501/73/34 490/7/34
f 354/74/4 339/36/4 355/11/4
f 339/36/4 341/12/4 355/11/4
f 341/12/4 345/75/4 356/10/4
f 511/76/5 387/15/5 346/14/5
f 387/15/5 388/77/5 347/13/5
f 388/77/5 386/78/5 347/13/5
f 362/79/35 489/8/35 363/17/35
f 489/8/6 490/7/6 487/16/6
f 490/7/6 367/80/6 487/16/6
f 454/81/7 390/20/7 329/19/7
f 390/20/7 392/65/7 330/18/7
f 392/65/7 391/82/7 330/18/7
f 469/23/8 470/52/8 471/83/8
f 471/83/8 351/84/8 469/23/8
f 351/84/8 353/21/8 469/23/8
f 316/24/9 395/72/9 393/9/9
f 380/85/10 376/56/10 379/27/10
f 376/56/10 506/28/10 379/27/10
f 506/28/10 377/86/10 381/26/10
f 495/87/11 498/47/11 435/29/11
f 498/47/11 493/30/11 435/29/11
f 493/30/36 368/88/36 318/6/36
f 389/89/37 398/33/37 344/32/37
f 398/33/12 399/63/12 343/31/12
f 399/63/12 397/90/12 343/31/12
f 337/91/13 344/32/13 336/35/13
f 344/32/13 343/31/13 335/34/13
f 343/31/13 342/92/13 335/34/13
f 340/93/38 336/35/38 339/36/38
f 336/35/14 335/34/14 339/36/14
f 335/34/14 338/94/14 341/12/14
f 327/95/15 441/50/15 326/38/15
f 441/50/15 324/39/15 326/38/15
f 324/39/15 325/96/15 328/37/15
f 328/37/16 333/64/16 331/40/16
f 416/41/17 413/97/17 411/42/17
f 419/98/18 374/60/18 420/45/18
f 374/60/18 375/46/18 420/45/18
f 375/46/18 422/99/18 421/44/18
f 546/100/39 425/49/39 430/48/39
f 425/49/39 426/61/39 498/47/39
f 498/47/39 426/61/39 493/30/39
f 426/61/40 429/101/40 427/102/40
f 427/102/39 493/30/39 426/61/39
f 330/18/20 324/39/20 441/50/20
f 357/103/21 346/14/21 358/3/21
f 346/14/21 347/13/21 359/51/21
f 347/13/21 361/104/21 359/51/21
f 528/54/41 527/2/41 470/52/41
f 527/2/41 407/1/41 470/52/41
f 407/1/41 408/105/41 471/83/41
f 408/105/41 405/106/41 471/83/41
f 471/83/41 470/52/41 407/1/41
f 384/55/23 506/28/23 376/56/23
f 383/107/24 411/42/24 382/57/24
f 411/42/24 413/97/24 384/55/24
f 413/97/24 412/108/24 384/55/24
f 421/44/25 402/109/25 400/58/25
f 381/26/26 388/110/26 387/59/26
f 418/111/27 355/11/27 415/43/27
f 355/11/27 356/10/27 416/41/27
f 356/10/27 360/112/27 416/41/27
f 373/113/28 363/17/28 374/60/28
f 363/17/28 487/16/28 374/60/28
f 487/16/28 370/114/28 375/46/28
f 313/115/42 321/5/42 314/25/42
f 321/5/29 440/4/29 314/25/29
f 440/4/43 315/116/43 316/24/43
f 424/62/30 468/22/30 353/21/30
f 353/21/30 423/117/30 424/62/30
f 423/117/30 426/61/30 424/62/30
f 404/118/31 331/40/31 398/33/31
f 331/40/31 333/64/31 398/33/31
f 333/64/31 332/119/31 399/63/31
f 401/120/44 400/66/44 390/20/44
f 400/66/32 402/121/32 392/65/32
f 402/121/45 403/122/45 392/65/45
s 1
f 40/123/46 2/124/47 211/125/48
f 96/126/49 1/127/50 191/128/51
f 60/129/52 54/130/53 218/131/54
f 84/132/55 2/124/47 192/133/56
f 48/134/57 39/135/58 224/136/59
f 13/137/60 3/138/61 215/139/62
f 61/140/63 58/141/64 216/142/65
f 73/143/66 3/138/61 193/144/67
f 235/145/68 320/146/69 439/147/70
f 18/148/71 4/149/72 228/150/73
f 33/151/74 26/152/75 227/153/76
f 19/154/77 8/155/78 229/156/79
f 58/141/64 4/149/72 194/157/80
f 20/158/81 12/159/82 230/160/83
f 24/161/84 23/162/85 235/145/68
f 8/155/78 7/163/86 231/164/87
f 21/165/88 19/154/77 234/166/89
f 62/167/90 5/168/91 221/169/92
f 15/170/93 14/171/94 214/172/95
f 11/173/96 10/174/97 233/175/98
f 34/176/99 32/177/100 237/178/101
f 66/179/102 6/180/103 220/181/104
f 147/182/105 144/183/106 282/184/107
f 12/159/82 11/173/96 233/175/98
f 11/173/96 8/155/78 231/164/87
f 79/185/108 78/186/109 248/187/110
f 16/188/111 15/170/93 214/172/95
f 15/170/93 10/174/97 232/189/112
f 10/174/97 9/190/113 232/189/112
f 17/191/114 12/159/82 233/175/98
f 76/192/115 14/171/94 215/139/62
f 80/193/116 16/188/111 214/172/95
f 32/177/100 22/194/117 226/195/118
f 31/196/119 18/148/71 225/197/120
f 117/198/121 115/199/122 195/200/123
f 35/201/124 34/176/99 237/178/101
f 42/202/125 41/203/126 210/204/127
f 23/162/85 19/154/77 229/156/79
f 25/205/128 24/161/84 236/206/129
f 9/190/113 6/180/103 232/189/112
f 26/152/75 25/205/128 236/206/129
f 25/205/128 22/194/117 234/166/89
f 27/207/130 431/208/131 491/209/132
f 27/207/130 24/161/84 235/145/68
f 14/171/94 13/137/60 215/139/62
f 29/210/133 26/152/75 236/206/129
f 37/211/134 36/212/135 238/213/136
f 47/214/137 35/201/124 223/215/138
f 30/216/139 29/210/133 212/217/140
f 46/218/141 31/196/119 222/219/142
f 17/191/114 16/188/111 213/220/143
f 83/221/144 30/216/139 212/217/140
f 50/222/145 49/223/146 240/224/147
f 56/225/148 396/226/149 492/227/150
f 36/212/135 32/177/100 226/195/118
f 38/228/151 37/211/134 239/229/152
f 23/162/85 20/158/81 235/145/68
f 40/123/46 33/151/74 227/153/76
f 39/135/58 38/228/151 239/229/152
f 38/228/151 35/201/124 237/178/101
f 90/230/153 89/231/154 251/232/155
f 43/233/156 42/202/125 210/204/127
f 42/202/125 37/211/134 238/213/136
f 68/234/157 67/235/158 207/236/159
f 7/163/86 5/168/91 231/164/87
f 44/237/160 39/135/58 239/229/152
f 87/238/161 41/203/126 211/125/48
f 91/239/162 43/233/156 210/204/127
f 59/240/163 50/222/145 217/241/164
f 45/242/165 44/237/160 209/243/166
f 58/141/64 46/218/141 216/142/65
f 29/210/133 28/244/167 212/217/140
f 95/245/168 45/242/165 209/243/166
f 62/167/90 61/140/63 243/246/169
f 69/247/170 68/234/157 206/248/171
f 51/249/172 47/214/137 223/215/138
f 53/250/173 52/251/174 242/252/175
f 36/212/135 33/151/74 238/213/136
f 55/253/176 48/134/57 224/136/59
f 34/176/99 31/196/119 225/197/120
f 52/251/174 51/249/172 241/254/177
f 54/130/53 53/250/173 242/252/175
f 53/250/173 50/222/145 240/224/147
f 57/255/178 52/251/174 241/254/177
f 49/223/146 47/214/137 240/224/147
f 78/186/109 77/256/179 247/257/180
f 71/258/181 70/259/182 205/260/183
f 44/237/160 43/233/156 209/243/166
f 63/261/184 59/240/163 217/241/164
f 65/262/185 64/263/186 245/264/187
f 51/249/172 48/134/57 241/254/177
f 67/235/158 60/129/52 218/131/54
f 13/137/60 6/180/103 219/265/188
f 9/190/113 5/168/91 220/181/104
f 66/179/102 65/262/185 245/264/187
f 49/223/146 46/218/141 222/219/142
f 65/262/185 62/167/90 243/246/169
f 64/263/186 63/261/184 244/266/189
f 70/259/182 69/247/170 206/248/171
f 69/247/170 64/263/186 244/266/189
f 71/258/181 66/179/102 245/264/187
f 98/267/190 68/234/157 207/236/159
f 102/268/191 70/259/182 206/248/171
f 72/269/192 71/258/181 205/260/183
f 106/270/193 72/269/192 205/260/183
f 93/271/194 92/272/195 200/273/196
f 115/199/122 73/143/66 193/144/67
f 118/274/197 74/275/198 198/276/199
f 80/193/116 79/185/108 248/187/110
f 166/277/200 158/278/201 292/279/202
f 79/185/108 76/192/115 246/280/203
f 81/281/204 78/186/109 247/257/180
f 119/282/205 77/283/179 197/284/206
f 121/285/207 119/282/205 197/284/206
f 76/192/115 75/286/208 246/280/203
f 513/287/209 81/288/204 507/289/210
f 72/269/192 3/138/61 219/265/188
f 500/290/211 538/291/212 202/292/213
f 473/293/214 472/294/215 67/235/158
f 89/231/154 88/295/216 250/296/217
f 63/261/184 60/129/52 244/266/189
f 75/286/208 74/275/198 246/280/203
f 83/221/144 82/297/218 202/292/213
f 127/298/219 122/299/220 267/300/221
f 145/301/222 139/302/223 276/303/224
f 212/217/140 486/304/225 485/305/226
f 202/292/213 538/291/212 537/306/227
f 107/307/228 83/221/144 202/292/213
f 94/308/229 93/271/194 199/309/230
f 107/307/228 84/132/55 192/133/56
f 467/310/231 131/311/232 148/312/233
f 110/313/234 85/314/235 204/315/236
f 91/239/162 90/230/153 251/232/155
f 130/316/237 127/298/219 261/317/238
f 90/230/153 87/238/161 249/318/239
f 95/245/168 94/308/229 199/309/230
f 92/272/195 89/231/154 250/296/217
f 122/319/220 88/320/216 203/321/240
f 94/308/229 91/239/162 251/232/155
f 87/238/161 86/322/241 249/318/239
f 112/323/242 93/271/194 200/273/196
f 127/298/219 92/324/195 250/325/217
f 30/216/139 2/124/47 227/153/76
f 111/326/243 95/245/168 199/309/230
f 111/326/243 96/126/49 191/128/51
f 100/327/244 99/328/245 253/329/246
f 540/330/247 539/331/248 201/332/249
f 86/322/241 85/314/235 249/318/239
f 128/333/250 123/334/251 268/335/252
f 129/336/253 445/337/254 450/338/255
f 45/242/165 1/127/50 224/136/59
f 105/339/256 104/340/257 195/200/123
f 102/268/191 101/341/258 254/342/259
f 201/332/249 539/331/248 497/343/260
f 101/341/258 98/267/190 252/344/261
f 106/270/193 105/339/256 195/200/123
f 126/345/262 119/282/205 266/346/263
f 103/347/264 100/327/244 253/329/246
f 99/348/245 514/349/265 504/350/266
f 105/339/256 102/268/191 254/342/259
f 529/351/267 536/352/268 98/267/190
f 116/353/269 104/340/257 196/354/270
f 101/341/258 100/327/244 254/342/259
f 128/333/250 103/355/264 253/356/246
f 115/199/122 106/270/193 195/200/123
f 144/183/106 134/357/271 273/358/272
f 110/313/234 109/359/273 255/360/274
f 108/361/275 523/362/276 455/363/277
f 109/359/273 108/364/275 255/360/274
f 137/365/278 134/357/271 271/366/279
f 132/367/280 474/368/281 135/369/282
f 124/370/283 120/371/284 255/372/274
f 122/319/220 120/371/284 264/373/285
f 120/371/284 110/374/234 255/372/274
f 114/375/286 113/376/287 256/377/288
f 130/316/237 112/378/242 200/379/196
f 520/380/289 452/381/290 141/382/291
f 113/376/287 112/323/242 256/377/288
f 149/383/292 146/384/293 286/385/294
f 130/316/237 129/336/253 256/386/288
f 163/387/295 153/388/296 273/358/272
f 109/359/273 107/307/228 202/292/213
f 518/389/297 114/390/286 256/386/288
f 113/376/287 111/326/243 199/309/230
f 118/274/197 117/198/121 257/391/298
f 125/392/299 116/393/269 196/394/270
f 140/395/300 133/396/301 278/397/302
f 117/198/121 116/353/269 257/391/298
f 125/392/299 121/398/207 257/399/298
f 121/398/207 118/400/197 257/399/298
f 158/401/201 155/402/303 306/403/304
f 266/346/263 259/404/305 144/183/106
f 264/373/285 269/405/306 138/406/307
f 142/407/308 141/382/291 262/408/309
f 259/404/305 271/366/279 134/357/271
f 128/333/250 125/392/299 196/394/270
f 150/409/310 465/410/311 457/411/312
f 156/412/313 153/388/296 302/413/314
f 267/300/221 264/414/285 136/415/315
f 148/312/233 146/384/293 260/416/316
f 448/417/317 443/418/318 262/408/309
f 268/335/252 260/416/316 146/384/293
f 269/405/306 263/419/319 140/395/300
f 271/420/279 258/421/320 137/422/278
f 139/302/223 136/415/315 284/423/321
f 170/424/322 151/425/323 297/426/324
f 132/367/280 461/427/325 474/368/281
f 126/345/262 508/428/326 502/429/327
f 260/416/316 533/430/328 479/431/329
f 534/432/330 510/433/331 265/434/332
f 131/311/232 458/435/333 459/436/334
f 150/409/310 456/437/335 132/367/280
f 265/434/332 266/346/263 147/182/105
f 263/419/319 446/438/336 447/439/337
f 261/317/238 267/300/221 139/302/223
f 143/440/338 464/441/339 520/380/289
f 258/421/320 268/335/252 149/383/292
f 262/408/309 270/442/340 142/407/308
f 169/443/341 162/444/342 298/445/343
f 270/442/340 261/317/238 145/301/222
f 290/446/344 274/447/345 160/448/346
f 168/449/347 154/450/348 276/303/224
f 147/182/105 135/369/282 265/434/332
f 164/451/349 161/452/350 287/453/351
f 281/454/352 287/453/351 161/452/350
f 168/449/347 165/455/353 304/456/354
f 138/457/307 136/415/315 264/414/285
f 167/458/355 165/455/353 279/459/356
f 190/460/357 180/461/358 293/462/359
f 278/397/302 283/463/360 162/444/342
f 149/383/292 137/422/278 258/421/320
f 273/358/272 291/464/361 163/387/295
f 140/395/300 138/406/307 269/405/306
f 169/465/341 167/458/355 288/466/362
f 179/467/363 177/468/364 312/469/365
f 287/453/351 280/470/366 164/451/349
f 284/423/321 279/459/356 165/455/353
f 291/464/361 272/471/367 166/277/200
f 279/459/356 288/466/362 167/458/355
f 187/472/368 179/467/363 312/469/365
f 276/303/224 284/423/321 168/449/347
f 145/301/222 142/407/308 270/442/340
f 521/473/369 516/474/370 133/396/301
f 288/475/362 278/397/302 169/443/341
f 285/476/371 277/477/372 170/424/322
f 185/478/373 182/479/374 312/480/365
f 277/477/372 289/481/375 151/425/323
f 162/444/342 159/482/376 303/483/377
f 274/447/345 285/476/371 152/484/378
f 282/184/107 273/358/272 153/388/296
f 189/485/379 186/486/380 312/480/365
f 289/481/375 276/303/224 154/450/348
f 160/448/346 152/484/378 294/487/381
f 286/385/294 275/488/382 155/402/303
f 187/472/368 184/489/383 310/490/384
f 280/470/366 282/184/107 156/412/313
f 131/311/232 459/436/334 460/491/385
f 275/488/382 290/446/344 157/492/386
f 164/451/349 156/412/313 300/493/387
f 272/494/367 286/385/294 158/401/201
f 176/495/388 174/496/389 308/497/390
f 283/463/360 281/454/352 159/482/376
f 297/426/324 309/498/391 178/499/392
f 157/492/386 155/402/303 275/488/382
f 294/487/381 305/500/393 179/467/363
f 183/501/394 180/461/358 312/480/365
f 86/322/241 84/132/55 204/315/236
f 302/413/314 293/462/359 180/461/358
f 181/502/395 175/503/396 312/469/365
f 160/448/346 157/492/386 290/446/344
f 309/498/391 296/504/397 181/502/395
f 306/403/304 295/505/398 182/506/374
f 161/452/350 159/482/376 281/454/352
f 170/424/322 152/484/378 285/476/371
f 300/493/387 302/413/314 183/501/394
f 295/505/398 310/490/384 184/489/383
f 21/165/88 18/148/71 228/150/73
f 154/450/348 151/425/323 289/481/375
f 292/279/202 306/507/304 185/478/373
f 303/483/377 301/508/399 186/486/380
f 166/277/200 163/387/295 291/464/361
f 41/203/126 40/123/46 211/125/48
f 310/490/384 294/487/381 187/472/368
f 301/508/399 307/509/400 188/510/401
f 252/344/261 483/511/402 484/512/403
f 298/445/343 303/483/377 189/485/379
f 293/462/359 311/513/404 190/460/357
f 190/460/357 173/514/405 312/480/365
f 104/340/257 103/347/264 196/354/270
f 307/509/400 300/493/387 171/515/406
f 304/456/354 299/516/407 172/517/408
f 311/513/404 292/279/202 173/514/405
f 299/516/407 308/497/390 174/496/389
f 296/504/397 304/456/354 175/503/396
f 308/497/390 298/518/343 176/495/388
f 175/503/396 172/517/408 312/469/365
f 305/500/393 297/426/324 177/468/364
f 188/510/401 171/515/406 312/480/365
f 178/499/392 177/468/364 297/426/324
f 56/225/148 55/253/176 208/519/409
f 97/520/410 96/126/49 201/332/249
f 181/502/395 178/499/392 309/498/391
f 184/489/383 182/506/374 295/505/398
f 188/510/401 186/486/380 301/508/399
f 88/295/216 85/314/235 203/521/240
f 7/163/86 4/149/72 221/169/92
f 55/253/176 1/127/50 208/519/409
f 183/501/394 171/515/406 300/493/387
f 77/256/179 74/275/198 197/522/206
f 174/496/389 172/517/408 299/516/407
f 185/478/373 173/514/405 292/279/202
f 75/286/208 73/143/66 198/276/199
f 189/523/379 176/495/388 298/518/343
f 61/140/63 59/240/163 243/246/169
f 22/194/117 21/165/88 234/166/89
f 437/524/411 242/252/175 438/525/412
f 476/526/413 248/187/110 477/527/414
f 545/528/415 548/529/416 218/131/54
f 481/530/417 248/187/110 81/281/204
f 543/531/418 218/131/54 548/529/416
f 515/532/419 260/416/316 123/334/251
f 350/533/420 207/236/159 472/294/215
f 369/534/421 235/145/68 20/158/81
f 545/528/415 218/131/54 54/130/53
f 541/535/422 230/160/83 17/191/114
f 317/536/423 235/145/68 369/534/421
f 323/537/424 263/419/319 124/370/283
f 365/538/425 212/217/140 28/244/167
f 482/539/426 252/344/261 536/352/268
f 364/540/427 208/519/409 97/520/410
f 322/541/428 242/252/175 57/255/178
f 349/542/429 213/220/143 531/543/430
f 366/544/431 56/225/148 208/519/409
f 544/545/432 230/160/83 541/535/422
f 526/546/433 530/547/434 207/236/159
f 410/548/435 531/543/430 213/220/143
f 428/549/436 547/550/437 230/160/83
f 410/548/435 213/220/143 80/193/116
f 40/123/46 227/153/76 2/124/47
f 96/126/49 208/519/409 1/127/50
f 60/129/52 217/241/164 54/130/53
f 84/132/55 211/125/48 2/124/47
f 48/134/57 223/215/138 39/135/58
f 13/137/60 219/265/188 3/138/61
f 61/140/63 221/169/92 58/141/64
f 73/143/66 215/139/62 3/138/61
f 432/551/438 27/207/130 439/147/70
f 27/207/130 235/145/68 439/147/70
f 18/148/71 194/157/80 4/149/72
f 33/151/74 226/195/118 26/152/75
f 19/154/77 228/150/73 8/155/78
f 58/141/64 221/169/92 4/149/72
f 20/158/81 229/156/79 12/159/82
f 24/161/84 234/166/89 23/162/85
f 8/155/78 228/150/73 7/163/86
f 21/165/88 228/150/73 19/154/77
f 62/167/90 220/181/104 5/168/91
f 15/170/93 232/189/112 14/171/94
f 11/173/96 231/164/87 10/174/97
f 34/176/99 225/197/120 32/177/100
f 66/179/102 219/265/188 6/180/103
f 147/182/105 266/346/263 144/183/106
f 12/159/82 229/156/79 11/173/96
f 11/173/96 229/156/79 8/155/78
f 79/185/108 246/280/203 78/186/109
f 16/188/111 233/175/98 15/170/93
f 15/170/93 233/175/98 10/174/97
f 10/174/97 231/164/87 9/190/113
f 17/191/114 230/160/83 12/159/82
f 76/192/115 214/172/95 14/171/94
f 80/193/116 213/220/143 16/188/111
f 32/177/100 225/197/120 22/194/117
f 31/196/119 194/157/80 18/148/71
f 117/198/121 198/276/199 115/199/122
f 35/201/124 222/219/142 34/176/99
f 42/202/125 238/213/136 41/203/126
f 23/162/85 234/166/89 19/154/77
f 25/205/128 234/166/89 24/161/84
f 9/190/113 220/181/104 6/180/103
f 26/152/75 226/195/118 25/205/128
f 25/205/128 226/195/118 22/194/117
f 519/552/439 28/244/167 491/209/132
f 28/244/167 236/206/129 491/209/132
f 236/206/129 27/207/130 491/209/132
f 27/207/130 432/551/438 431/208/131
f 27/207/130 236/206/129 24/161/84
f 14/171/94 232/189/112 13/137/60
f 29/210/133 227/153/76 26/152/75
f 37/211/134 237/178/101 36/212/135
f 47/214/137 222/219/142 35/201/124
f 30/216/139 227/153/76 29/210/133
f 46/218/141 194/157/80 31/196/119
f 17/191/114 233/175/98 16/188/111
f 83/221/144 192/133/56 30/216/139
f 50/222/145 216/142/65 49/223/146
f 434/553/440 57/255/178 433/554/441
f 57/255/178 241/254/177 492/227/150
f 433/554/441 57/255/178 492/227/150
f 241/254/177 56/225/148 492/227/150
f 36/212/135 237/178/101 32/177/100
f 38/228/151 237/178/101 37/211/134
f 23/162/85 229/156/79 20/158/81
f 40/123/46 238/213/136 33/151/74
f 39/135/58 223/215/138 38/228/151
f 38/228/151 223/215/138 35/201/124
f 90/230/153 249/318/239 89/231/154
f 43/233/156 239/229/152 42/202/125
f 42/202/125 239/229/152 37/211/134
f 68/234/157 244/266/189 67/235/158
f 7/163/86 221/169/92 5/168/91
f 44/237/160 224/136/59 39/135/58
f 87/238/161 210/204/127 41/203/126
f 91/239/162 209/243/166 43/233/156
f 59/240/163 216/142/65 50/222/145
f 45/242/165 224/136/59 44/237/160
f 58/141/64 194/157/80 46/218/141
f 29/210/133 236/206/129 28/244/167
f 95/245/168 191/128/51 45/242/165
f 62/167/90 221/169/92 61/140/63
f 69/247/170 244/266/189 68/234/157
f 51/249/172 240/224/147 47/214/137
f 53/250/173 240/224/147 52/251/174
f 36/212/135 226/195/118 33/151/74
f 55/253/176 241/254/177 48/134/57
f 34/176/99 222/219/142 31/196/119
f 52/251/174 240/224/147 51/249/172
f 54/130/53 217/241/164 53/250/173
f 53/250/173 217/241/164 50/222/145
f 57/255/178 242/252/175 52/251/174
f 49/223/146 222/219/142 47/214/137
f 78/186/109 246/280/203 77/256/179
f 71/258/181 245/264/187 70/259/182
f 44/237/160 239/229/152 43/233/156
f 63/261/184 243/246/169 59/240/163
f 65/262/185 243/246/169 64/263/186
f 51/249/172 223/215/138 48/134/57
f 67/235/158 244/266/189 60/129/52
f 13/137/60 232/189/112 6/180/103
f 9/190/113 231/164/87 5/168/91
f 66/179/102 220/181/104 65/262/185
f 49/223/146 216/142/65 46/218/141
f 65/262/185 220/181/104 62/167/90
f 64/263/186 243/246/169 63/261/184
f 70/259/182 245/264/187 69/247/170
f 69/247/170 245/264/187 64/263/186
f 71/258/181 219/265/188 66/179/102
f 98/267/190 206/248/171 68/234/157
f 102/268/191 205/260/183 70/259/182
f 72/269/192 219/265/188 71/258/181
f 106/270/193 193/144/67 72/269/192
f 93/271/194 251/232/155 92/272/195
f 115/199/122 198/276/199 73/143/66
f 118/274/197 197/522/206 74/275/198
f 80/193/116 214/172/95 79/185/108
f 166/277/200 272/471/367 158/278/201
f 79/185/108 214/172/95 76/192/115
f 81/281/204 248/187/110 78/186/109
f 119/282/205 247/555/180 77/283/179
f 121/285/207 259/404/305 119/282/205
f 76/192/115 215/139/62 75/286/208
f 247/555/180 126/345/262 507/289/210
f 126/345/262 503/556/442 507/289/210
f 385/557/443 81/288/204 513/287/209
f 81/288/204 247/555/180 507/289/210
f 72/269/192 193/144/67 3/138/61
f 202/292/213 82/297/218 500/290/211
f 82/297/218 499/558/444 500/290/211
f 207/236/159 67/235/158 472/294/215
f 67/235/158 218/131/54 542/559/445
f 473/293/214 67/235/158 542/559/445
f 89/231/154 249/318/239 88/295/216
f 63/261/184 217/241/164 60/129/52
f 75/286/208 198/276/199 74/275/198
f 83/221/144 212/217/140 82/297/218
f 127/298/219 250/325/217 122/299/220
f 145/301/222 261/317/238 139/302/223
f 499/558/444 82/297/218 485/305/226
f 82/297/218 212/217/140 485/305/226
f 523/560/276 108/364/275 522/561/446
f 108/364/275 202/292/213 537/306/227
f 522/561/446 108/364/275 537/306/227
f 107/307/228 192/133/56 83/221/144
f 94/308/229 251/232/155 93/271/194
f 107/307/228 204/315/236 84/132/55
f 290/446/344 148/312/233 131/311/232
f 148/312/233 480/562/447 466/563/448
f 466/563/448 467/310/231 148/312/233
f 110/313/234 203/521/240 85/314/235
f 91/239/162 210/204/127 90/230/153
f 130/316/237 200/379/196 127/298/219
f 90/230/153 210/204/127 87/238/161
f 95/245/168 209/243/166 94/308/229
f 92/272/195 251/232/155 89/231/154
f 122/319/220 250/564/217 88/320/216
f 94/308/229 209/243/166 91/239/162
f 87/238/161 211/125/48 86/322/241
f 112/323/242 199/309/230 93/271/194
f 127/298/219 200/379/196 92/324/195
f 30/216/139 192/133/56 2/124/47
f 111/326/243 191/128/51 95/245/168
f 111/326/243 201/332/249 96/126/49
f 100/327/244 252/344/261 99/328/245
f 201/332/249 114/375/286 540/330/247
f 114/375/286 525/565/449 524/566/450
f 114/375/286 524/566/450 540/330/247
f 86/322/241 204/315/236 85/314/235
f 128/333/250 253/356/246 123/334/251
f 129/336/253 262/408/309 445/337/254
f 262/408/309 444/567/451 445/337/254
f 450/338/255 517/568/452 129/336/253
f 45/242/165 191/128/51 1/127/50
f 105/339/256 254/342/259 104/340/257
f 102/268/191 206/248/171 101/341/258
f 496/569/453 97/520/410 497/343/260
f 97/520/410 201/332/249 497/343/260
f 101/341/258 206/248/171 98/267/190
f 106/270/193 205/260/183 105/339/256
f 126/345/262 247/555/180 119/282/205
f 103/347/264 254/342/259 100/327/244
f 505/570/454 123/334/251 504/350/266
f 123/334/251 253/356/246 504/350/266
f 253/356/246 99/348/245 504/350/266
f 99/348/245 512/571/455 514/349/265
f 105/339/256 205/260/183 102/268/191
f 252/344/261 98/267/190 536/352/268
f 98/267/190 207/236/159 530/547/434
f 529/351/267 98/267/190 530/547/434
f 116/353/269 195/200/123 104/340/257
f 101/341/258 252/344/261 100/327/244
f 128/333/250 196/394/270 103/355/264
f 115/199/122 193/144/67 106/270/193
f 144/183/106 259/404/305 134/357/271
f 110/313/234 204/315/236 109/359/273
f 334/572/456 124/370/283 455/363/277
f 124/370/283 255/372/274 455/363/277
f 255/372/274 108/361/275 455/363/277
f 109/359/273 202/292/213 108/364/275
f 137/365/278 291/464/361 134/357/271
f 478/573/457 135/369/282 475/574/458
f 135/369/282 287/453/351 132/367/280
f 475/574/458 135/369/282 474/368/281
f 124/370/283 269/405/306 120/371/284
f 122/319/220 203/321/240 120/371/284
f 120/371/284 203/321/240 110/374/234
f 114/375/286 201/332/249 113/376/287
f 130/316/237 256/386/288 112/378/242
f 285/476/371 143/440/338 141/382/291
f 143/440/338 520/380/289 141/382/291
f 452/381/290 453/575/459 141/382/291
f 113/376/287 199/309/230 112/323/242
f 149/383/292 268/335/252 146/384/293
f 130/316/237 270/442/340 129/336/253
f 163/387/295 293/462/359 153/388/296
f 109/359/273 204/315/236 107/307/228
f 256/386/288 129/336/253 518/389/297
f 129/336/253 517/568/452 518/389/297
f 518/389/297 525/576/449 114/390/286
f 113/376/287 201/332/249 111/326/243
f 118/274/197 198/276/199 117/198/121
f 125/392/299 257/399/298 116/393/269
f 140/395/300 263/419/319 133/396/301
f 117/198/121 195/200/123 116/353/269
f 125/392/299 271/420/279 121/398/207
f 121/398/207 197/577/206 118/400/197
f 158/401/201 286/385/294 155/402/303
f 266/346/263 119/282/205 259/404/305
f 264/373/285 120/371/284 269/405/306
f 142/407/308 277/477/372 141/382/291
f 259/404/305 121/285/207 271/366/279
f 128/333/250 258/421/320 125/392/299
f 150/409/310 516/474/370 465/410/311
f 156/412/313 282/184/107 153/388/296
f 267/300/221 122/299/220 264/414/285
f 148/312/233 275/488/382 146/384/293
f 262/408/309 141/382/291 448/417/317
f 141/382/291 453/575/459 448/417/317
f 443/418/318 444/567/451 262/408/309
f 268/335/252 123/334/251 260/416/316
f 269/405/306 124/370/283 263/419/319
f 271/420/279 125/392/299 258/421/320
f 139/302/223 267/300/221 136/415/315
f 170/424/322 277/477/372 151/425/323
f 132/367/280 462/578/460 461/427/325
f 126/345/262 265/434/332 508/428/326
f 265/434/332 509/579/461 508/428/326
f 502/429/327 503/556/442 126/345/262
f 480/562/447 148/312/233 479/431/329
f 148/312/233 260/416/316 479/431/329
f 260/416/316 532/580/462 533/430/328
f 265/434/332 135/369/282 534/432/330
f 135/369/282 478/573/457 534/432/330
f 510/433/331 509/579/461 265/434/332
f 131/311/232 467/310/231 458/435/333
f 281/454/352 150/409/310 132/367/280
f 150/409/310 457/411/312 456/437/335
f 456/437/335 462/578/460 132/367/280
f 265/434/332 126/345/262 266/346/263
f 451/581/463 133/396/301 447/439/337
f 133/396/301 263/419/319 447/439/337
f 263/419/319 442/582/464 446/438/336
f 261/317/238 127/298/219 267/300/221
f 143/440/338 463/583/465 464/441/339
f 258/421/320 128/333/250 268/335/252
f 262/408/309 129/336/253 270/442/340
f 169/443/341 278/397/302 162/444/342
f 270/442/340 130/316/237 261/317/238
f 290/446/344 131/311/232 274/447/345
f 168/449/347 296/504/397 154/450/348
f 147/182/105 280/470/366 135/369/282
f 164/451/349 307/509/400 161/452/350
f 281/454/352 132/367/280 287/453/351
f 168/449/347 284/423/321 165/455/353
f 138/457/307 279/459/356 136/415/315
f 167/458/355 299/516/407 165/455/353
f 190/460/357 312/480/365 180/461/358
f 278/397/302 133/396/301 283/463/360
f 149/383/292 272/494/367 137/422/278
f 273/358/272 134/357/271 291/464/361
f 140/395/300 288/475/362 138/406/307
f 169/465/341 308/497/390 167/458/355
f 179/467/363 305/500/393 177/468/364
f 287/453/351 135/369/282 280/470/366
f 284/423/321 136/415/315 279/459/356
f 291/464/361 137/365/278 272/471/367
f 279/459/356 138/457/307 288/466/362
f 187/472/368 294/487/381 179/467/363
f 276/303/224 139/302/223 284/423/321
f 145/301/222 289/481/375 142/407/308
f 516/474/370 150/409/310 133/396/301
f 150/409/310 283/463/360 133/396/301
f 133/396/301 451/581/463 521/473/369
f 288/475/362 140/395/300 278/397/302
f 285/476/371 141/382/291 277/477/372
f 185/478/373 306/507/304 182/479/374
f 277/477/372 142/407/308 289/481/375
f 162/444/342 283/463/360 159/482/376
f 274/447/345 143/440/338 285/476/371
f 282/184/107 144/183/106 273/358/272
f 189/485/379 303/483/377 186/486/380
f 289/481/375 145/301/222 276/303/224
f 160/448/346 274/447/345 152/484/378
f 286/385/294 146/384/293 275/488/382
f 187/472/368 312/469/365 184/489/383
f 280/470/366 147/182/105 282/184/107
f 463/583/465 143/440/338 460/491/385
f 143/440/338 274/447/345 131/311/232
f 460/491/385 143/440/338 131/311/232
f 275/488/382 148/312/233 290/446/344
f 164/451/349 280/470/366 156/412/313
f 272/494/367 149/383/292 286/385/294
f 176/495/388 312/469/365 174/496/389
f 283/463/360 150/409/310 281/454/352
f 297/426/324 151/425/323 309/498/391
f 157/492/386 295/505/398 155/402/303
f 294/487/381 152/484/378 305/500/393
f 183/501/394 302/413/314 180/461/358
f 86/322/241 211/125/48 84/132/55
f 302/413/314 153/388/296 293/462/359
f 181/502/395 296/504/397 175/503/396
f 160/448/346 310/490/384 157/492/386
f 309/498/391 154/450/348 296/504/397
f 306/403/304 155/402/303 295/505/398
f 161/452/350 301/508/399 159/482/376
f 170/424/322 305/500/393 152/484/378
f 300/493/387 156/412/313 302/413/314
f 295/505/398 157/492/386 310/490/384
f 21/165/88 225/197/120 18/148/71
f 154/450/348 309/498/391 151/425/323
f 292/279/202 158/278/201 306/507/304
f 303/483/377 159/482/376 301/508/399
f 166/277/200 311/513/404 163/387/295
f 41/203/126 238/213/136 40/123/46
f 310/490/384 160/448/346 294/487/381
f 301/508/399 161/452/350 307/509/400
f 512/584/455 99/328/245 484/512/403
f 99/328/245 252/344/261 484/512/403
f 298/445/343 162/444/342 303/483/377
f 293/462/359 163/387/295 311/513/404
f 190/460/357 311/513/404 173/514/405
f 104/340/257 254/342/259 103/347/264
f 307/509/400 164/451/349 300/493/387
f 304/456/354 165/455/353 299/516/407
f 311/513/404 166/277/200 292/279/202
f 299/516/407 167/458/355 308/497/390
f 296/504/397 168/449/347 304/456/354
f 308/497/390 169/465/341 298/518/343
f 175/503/396 304/456/354 172/517/408
f 305/500/393 170/424/322 297/426/324
f 188/510/401 307/509/400 171/515/406
f 178/499/392 312/469/365 177/468/364
f 56/225/148 241/254/177 55/253/176
f 97/520/410 208/519/409 96/126/49
f 181/502/395 312/469/365 178/499/392
f 184/489/383 312/469/365 182/506/374
f 188/510/401 312/480/365 186/486/380
f 88/295/216 249/318/239 85/314/235
f 7/163/86 228/150/73 4/149/72
f 55/253/176 224/136/59 1/127/50
f 183/501/394 312/480/365 171/515/406
f 77/256/179 246/280/203 74/275/198
f 174/496/389 312/469/365 172/517/408
f 185/478/373 312/480/365 173/514/405
f 75/286/208 215/139/62 73/143/66
f 189/523/379 312/469/365 176/495/388
f 61/140/63 216/142/65 59/240/163
f 22/194/117 225/197/120 21/165/88
f 437/524/411 494/585/466 242/252/175
f 476/526/413 535/586/467 248/187/110
f 81/281/204 385/587/443 481/530/417
f 481/530/417 477/527/414 248/187/110
f 543/531/418 542/559/445 218/131/54
f 123/334/251 505/570/454 378/588/468
f 515/532/419 532/580/462 260/416/316
f 123/334/251 378/588/468 515/532/419
f 350/533/420 526/546/433 207/236/159
f 230/160/83 547/550/437 20/158/81
f 547/550/437 372/589/469 20/158/81
f 372/589/469 369/534/421 20/158/81
f 242/252/175 494/585/466 54/130/53
f 494/585/466 371/590/470 54/130/53
f 371/590/470 545/528/415 54/130/53
f 213/220/143 348/591/471 17/191/114
f 348/591/471 352/592/472 17/191/114
f 352/592/472 541/535/422 17/191/114
f 317/536/423 320/146/69 235/145/68
f 124/370/283 334/572/456 449/593/473
f 323/537/424 442/582/464 263/419/319
f 124/370/283 449/593/473 323/537/424
f 28/244/167 519/552/439 365/538/425
f 365/538/425 486/304/225 212/217/140
f 482/539/426 483/511/402 252/344/261
f 97/520/410 496/569/453 364/540/427
f 364/540/427 488/594/474 208/519/409
f 57/255/178 434/553/440 322/541/428
f 322/541/428 438/525/412 242/252/175
f 349/542/429 348/591/471 213/220/143
f 208/519/409 488/594/474 366/544/431
f 366/544/431 396/226/149 56/225/148
f 544/545/432 428/549/436 230/160/83
f 248/187/110 535/586/467 80/193/116
f 535/586/467 406/595/475 80/193/116
f 406/595/475 410/548/435 80/193/116
f 616/596/80 614/597/476 613/598/80
f 615/599/476 617/600/477 614/597/476
f 618/601/477 619/602/478 617/600/477
f 620/603/478 621/604/479 619/602/478
f 622/605/479 623/606/480 621/604/479
f 624/607/480 625/608/481 623/606/480
f 626/609/481 627/610/482 625/608/481
f 628/611/482 629/612/483 627/610/482
f 630/613/483 631/614/484 629/615/483
f 632/616/484 633/617/485 631/614/484
f 634/618/485 635/619/486 633/617/485
f 636/620/486 637/621/487 635/619/486
f 638/622/487 639/623/488 637/621/487
f 640/624/488 641/625/489 639/623/488
f 642/626/489 643/627/490 641/625/489
f 644/628/490 645/629/365 643/627/490
f 646/630/365 647/631/491 645/629/365
f 648/632/491 649/633/492 647/631/491
f 650/634/492 651/635/493 649/633/492
f 652/636/493 653/637/494 651/635/493
f 654/638/494 655/639/495 653/637/494
f 656/640/495 657/641/496 655/639/495
f 658/642/496 659/643/497 657/641/496
f 660/644/497 661/645/498 659/643/497
f 662/646/498 663/647/499 661/648/498
f 664/649/499 665/650/500 663/647/499
f 666/651/500 667/652/501 665/650/500
f 668/653/501 669/654/502 667/652/501
f 670/655/502 671/656/503 669/654/502
f 672/657/503 673/658/504 671/656/503
f 562/659/505 554/660/505 586/661/505
f 674/662/504 675/663/506 673/658/504
f 612/664/506 613/598/80 675/663/506
f 579/665/507 595/666/507 611/667/507
f 616/596/80 615/599/476 614/597/476
f 615/599/476 618/601/477 617/600/477
f 618/601/477 620/603/478 619/602/478
f 620/603/478 622/605/479 621/604/479
f 622/605/479 624/607/480 623/606/480
f 624/607/480 626/609/481 625/608/481
f 626/609/481 628/611/482 627/610/482
f 628/611/482 630/668/483 629/612/483
f 630/613/483 632/616/484 631/614/484
f 632/616/484 634/618/485 633/617/485
f 634/618/485 636/620/486 635/619/486
f 636/620/486 638/622/487 637/621/487
f 638/622/487 640/624/488 639/623/488
f 640/624/488 642/626/489 641/625/489
f 642/626/489 644/628/490 643/627/490
f 644/628/490 646/630/365 645/629/365
f 646/630/365 648/632/491 647/631/491
f 648/632/491 650/634/492 649/633/492
f 650/634/492 652/636/493 651/635/493
f 652/636/493 654/638/494 653/637/494
f 654/638/494 656/640/495 655/639/495
f 656/640/495 658/642/496 657/641/496
f 658/642/496 660/644/497 659/643/497
f 660/644/497 662/669/498 661/645/498
f 662/646/498 664/649/499 663/647/499
f 664/649/499 666/651/500 665/650/500
f 666/651/500 668/653/501 667/652/501
f 668/653/501 670/655/502 669/654/502
f 670/655/502 672/657/503 671/656/503
f 672/657/503 674/662/504 673/658/504
f 554/660/505 552/670/505 550/671/505
f 550/671/505 676/672/505 554/660/505
f 676/672/505 610/673/505 554/660/505
f 610/673/505 608/674/505 602/675/505
f 608/674/505 606/676/505 602/675/505
f 606/676/505 604/677/505 602/675/505
f 602/675/505 600/678/505 594/679/505
f 600/678/505 598/680/505 594/679/505
f 598/680/505 596/681/505 594/679/505
f 594/679/505 592/682/505 590/683/505
f 590/683/505 588/684/505 586/661/505
f 586/661/505 584/685/505 578/686/505
f 584/685/505 582/687/505 578/686/505
f 582/687/505 580/688/505 578/686/505
f 578/686/505 576/689/505 574/690/505
f 574/690/505 572/691/505 570/692/505
f 570/692/505 568/693/505 566/694/505
f 566/694/505 564/695/505 570/692/505
f 564/695/505 562/659/505 570/692/505
f 562/659/505 560/696/505 558/697/505
f 558/697/505 556/698/505 554/660/505
f 594/679/505 590/683/505 586/661/505
f 578/686/505 574/690/505 586/661/505
f 574/690/505 570/692/505 586/661/505
f 562/659/505 558/697/505 554/660/505
f 554/660/505 610/673/505 602/675/505
f 602/675/505 594/679/505 554/660/505
f 594/679/505 586/661/505 554/660/505
f 570/692/505 562/659/505 586/661/505
f 674/662/504 612/664/506 675/663/506
f 612/664/506 616/596/80 613/598/80
f 611/667/507 549/699/507 551/700/507
f 551/700/507 553/701/507 555/702/507
f 555/702/507 557/703/507 563/704/507
f 557/703/507 559/705/507 563/704/507
f 559/705/507 561/706/507 563/704/507
f 563/704/507 565/707/507 567/708/507
f 567/708/507 569/709/507 563/704/507
f 569/709/507 571/710/507 563/704/507
f 571/710/507 573/711/507 579/665/507
f 573/711/507 575/712/507 579/665/507
f 575/712/507 577/713/507 579/665/507
f 579/665/507 581/714/507 583/715/507
f 583/715/507 585/716/507 587/717/507
f 587/717/507 589/718/507 591/719/507
f 591/719/507 593/720/507 587/717/507
f 593/720/507 595/666/507 587/717/507
f 595/666/507 597/721/507 599/722/507
f 599/722/507 601/723/507 603/724/507
f 603/724/507 605/725/507 607/726/507
f 607/726/507 609/727/507 611/667/507
f 611/667/507 551/700/507 555/702/507
f 579/665/507 583/715/507 595/666/507
f 583/715/507 587/717/507 595/666/507
f 595/666/507 599/722/507 611/667/507
f 599/722/507 603/724/507 611/667/507
f 603/724/507 607/726/507 611/667/507
f 611/667/507 555/702/507 579/665/507
f 555/702/507 563/704/507 579/665/507
f 563/704/507 571/710/507 579/665/507
